Place,Sex,Name,CyrillicName,BodyweightKg,Deadlift1Kg,Deadlift2Kg,Deadlift3Kg,Best3DeadliftKg,Deadlift4Kg,TotalKg,WeightClassKg,Event,Equipment,Tested,Bench1Kg,Bench2Kg,Bench3Kg,Best3BenchKg,Bench4Kg,Squat1Kg,Squat2Kg,Squat3Kg,Best3SquatKg,Squat4Kg,Division,Age,BirthDate
1,F,Oksana Pakhuchaya,Оксана Пахучая,59.6,140,150,-160,150,,150,60,D,Raw,No,,,,,,,,,,,Pro Open,41,1978-09-19
1,F,Ekaterina Budakovskaya,Екатерина Будаковская,63.8,150,-160,-160,150,,150,67.5,D,Raw,No,,,,,,,,,,,Pro Open,38,1982-02-05
1,M,Anton Meshcheryakov,Антон Мещеряков,54.1,120,135,-142.5,135,,135,56,D,Raw,No,,,,,,,,,,,Pro Open,30,1990-06-25
1,M,Daniil Pakhuchiy,Даниил Пахучий,77.6,200,220,-245,220,,220,82.5,D,Raw,No,,,,,,,,,,,Pro Open,18,2001-09-12
2,M,Vladimir Lazarenko,Владимир Лазаренко,81.8,180,200,215,215,,215,82.5,D,Raw,No,,,,,,,,,,,Pro Open,36,1984-04-13
1,M,Vladislav Zhdanov,Владислав Жданов,89.7,195,210,222.5,222.5,,222.5,90,D,Raw,No,,,,,,,,,,,Pro Teen 16-17,17,2003-01-10
DQ,M,Oleg Shulga,Олег Шульга,100,,,,,,,100,D,Raw,No,,,,,,,,,,,Pro Open,41,1979-01-22
1,M,Aleksandr Pakhuchiy,Александр Пахучий,109.5,280,300,310,310,,310,110,D,Raw,No,,,,,,,,,,,Pro Open,42,1978-04-24
2,M,Aleksandr Burduzhuk,Александр Бурдужук,107.2,240,260,-275,260,,260,110,D,Raw,No,,,,,,,,,,,Pro Open,27,1993-04-28
1,M,Pavel Zhdanov,Павел Жданов,119.5,270,290,305,305,,305,125,D,Raw,No,,,,,,,,,,,Pro Open,39,1980-12-03
1,F,Lada Slobodenyuk,Лада Слободенюк,54.4,80,87.5,90,90,,90,56,D,Raw,No,,,,,,,,,,,Pro Teen 13-15,15,2004-12-24
1,M,Vladislav Grebennikov,Владислав Гребенников,79.8,130,140,165,165,,165,82.5,D,Raw,No,,,,,,,,,,,Pro Teen 16-17,17,2003-06-05
1,M,Evgeniy Aksenov,Евгений Аксенов,80.4,150,160,170,170,,170,82.5,D,Raw,No,,,,,,,,,,,Pro Open,28,1992-07-22
1,M,Vladimir Solovev,Владимир Соловьев,86.5,180,-190,-195,180,,180,90,D,Raw,No,,,,,,,,,,,Pro Juniors 20-23,23,1997-01-17
1,M,Aleksandr Kisel,Александр Кисель,83.4,210,220,230,230,,230,90,D,Raw,No,,,,,,,,,,,Pro Open,38,1982-03-02
1,M,Sergey Romanchenko,Сергей Романченко,105,270,290,-300,290,,290,110,D,Raw,No,,,,,,,,,,,Pro Open,28,1992-03-08
2,M,Pavel Siryak,Павел Сиряк,106.7,270,285,-300,285,,285,110,D,Raw,No,,,,,,,,,,,Pro Open,34,1986-06-14
3,M,Ruslan Dyachkov,Руслан Дьячков,106.9,195,210,230,230,,230,110,D,Raw,No,,,,,,,,,,,Pro Open,26,1994-05-01
1,M,Vladimir Zakharov,Владимир Захаров,100.1,190,200,205,205,,205,110,D,Raw,No,,,,,,,,,,,Pro Masters 65-69,65,1955-07-07
1,M,Anatoliy Melnik,Анатолий Мельник,99.5,,,,,,230,100,B,Unlimited,No,205,230,,230,,,,,,,Pro Open,27,1992-12-09
1,F,Irina Tishina,Ирина Тишина,47.7,,,,,,65,48,B,Raw,No,-65,-65,65,65,,,,,,,Pro Open,41,1978-10-05
1,F,Veronika Pavlenko,Вероника Павленко,51.8,,,,,,62.5,52,B,Raw,No,57.5,60,62.5,62.5,,,,,,,Pro Teen 16-17,16,2003-10-14
1,F,Veronika Pavlenko,Вероника Павленко,51.8,,,,,,62.5,52,B,Raw,No,57.5,60,62.5,62.5,,,,,,,Pro Open,16,2003-10-14
1,M,Vladimir Zhukovskiy,Владимир Жуковский,73.5,,,,,,127.5,75,B,Raw,No,120,-127.5,127.5,127.5,,,,,,,Pro Open,29,1991-05-15
2,M,Aleksandr Solomakhin,Александр Соломахин,73.9,,,,,,105,75,B,Raw,No,82.5,95,105,105,,,,,,,Pro Open,36,1984-06-27
1,M,Evgeniy Strazhenko,Евгений Страженко,80.5,,,,,,152.5,82.5,B,Raw,No,140,147.5,152.5,152.5,,,,,,,Pro Open,37,1982-12-03
2,M,Andrey Aleksandrov,Андрей Александров,80.8,,,,,,130,82.5,B,Raw,No,130,-145,-145,130,,,,,,,Pro Open,31,1988-11-12
DQ,M,Ivan Martynenko,Иван Мартыненко,82.5,,,,,,,82.5,B,Raw,No,-140,-140,-140,,,,,,,,Pro Open,31,1988-10-19
1,M,Aleksey Vasilyaka,Алексей Василяка,81.3,,,,,,120,82.5,B,Raw,No,120,-125,-125,120,,,,,,,Pro Masters 45-49,46,1973-12-11
1,M,Vladislav Zhdanov,Владислав Жданов,89.7,,,,,,132.5,90,B,Raw,No,117.5,125,132.5,132.5,,,,,,,Pro Teen 16-17,17,2003-01-10
1,M,Dmitriy Fakhretdinov,Дмитрий Фахретдинов,88.7,,,,,,185,90,B,Raw,No,175,185,-192.5,185,,,,,,,Pro Open,27,1992-10-22
2,M,Evgeniy Fedorov,Евгений Федоров,87.1,,,,,,132.5,90,B,Raw,No,122.5,127.5,132.5,132.5,,,,,,,Pro Open,24,1996-03-04
3,M,Ilya Gordienko,Илья Гордиенко,88.4,,,,,,70,90,B,Raw,No,60,70,-75,70,,,,,,,Pro Open,25,1994-10-22
1,M,Eduard Kern,Эдуард Керн,95.9,,,,,,110,100,B,Raw,No,100,110,-120,110,,,,,,,Pro Open,29,1990-09-21
DQ,M,Oleg Shulga,Олег Шульга,100,,,,,,,100,B,Raw,No,,,,,,,,,,,Pro Open,41,1979-01-22
1,M,Dmitriy Nadzha,Дмитрий Наджа,105,,,,,,170,110,B,Raw,No,160,-170,170,170,,,,,,,Pro Masters 40-44,44,1975-10-10
1,M,Vladimir Chubarov,Владимир Чубаров,129,,,,,,165,140,B,Raw,No,150,160,165,165,,,,,,,Pro Open,56,1964-04-03
1,M,Arman Kulibaev,Арман Кулибаев,75,220,237.5,-247.5,237.5,,647.5,75,SBD,Single-ply,No,160,-170,-170,160,,230,250,-260,250,,Pro Open,37,1983-01-18
1,F,Oksana Pakhuchaya,Оксана Пахучая,59.6,140,150,-160,150,,330,60,SBD,Wraps,No,60,-65,-65,60,,110,120,-130,120,,Pro Open,41,1978-09-19
1,M,Daniil Pakhuchiy,Даниил Пахучий,77.6,200,220,-245,220,,557.5,82.5,SBD,Wraps,No,110,120,127.5,127.5,,180,200,210,210,,Pro Teen 18-19,18,2001-09-12
1,M,Ilya Zozin,Илья Зозин,80.2,175,180,-190,180,,405,82.5,SBD,Wraps,No,70,75,80,80,,-140,140,145,145,,Pro Open,35,1985-07-05
1,M,Aleksandr Pakhuchiy,Александр Пахучий,109.5,280,300,310,310,,815,110,SBD,Wraps,No,190,205,-210,205,,-280,280,300,300,,Pro Open,42,1978-04-24
1,F,Kristina Bazylnikova,Кристина Базыльникова,42.9,75,82.5,-87.5,82.5,,177.5,44,SBD,Raw,No,35,37.5,-40,37.5,,47.5,52.5,57.5,57.5,,Pro Open,30,1989-08-07
1,F,Veronika Pavlenko,Вероника Павленко,51.8,90,100,107.5,107.5,,270,52,SBD,Raw,No,57.5,60,62.5,62.5,,80,90,100,100,,Pro Teen 16-17,16,2003-10-14
1,F,Veronika Pavlenko,Вероника Павленко,51.8,90,100,107.5,107.5,,270,52,SBD,Raw,No,57.5,60,62.5,62.5,,80,90,100,100,,Pro Open,16,2003-10-14
1,F,Arina Pakhuchaya,Арина Пахучая,54.9,70,77.5,82.5,82.5,,207.5,56,SBD,Raw,No,35,40,45,45,,60,70,80,80,,Pro Teen 13-15,13,2007-01-11
1,F,Tamara Makhnovskaya,Тамара Махновская,55.8,87.5,97.5,100,100,,210,56,SBD,Raw,No,37.5,40,42.5,42.5,,60,-67.5,67.5,67.5,,Pro Open,35,1985-05-18
1,F,Ekaterina Budakovskaya,Екатерина Будаковская,63.8,150,-160,-160,150,,310,67.5,SBD,Raw,No,55,60,-62.5,60,,80,90,100,100,,Pro Open,38,1982-02-05
1,F,Daredzhan Muteva,Дареджан Мутьева,65.9,75,82.5,87.5,87.5,,212.5,67.5,SBD,Raw,No,50,-52.5,,50,,65,70,75,75,,Pro Masters 40-44,41,1979-02-12
1,M,Islam Kamalov,Ислам Камалов,74.5,185,205,-215,205,,455,75,SBD,Raw,No,90,95,100,100,,-135,135,150,150,,Pro Open,26,1994-03-07
DQ,M,Vladimir Lazarenko,Владимир Лазаренко,81.8,-187.5,,,,,,82.5,SBD,Raw,No,-135,-140,-140,,,160,175,-185,175,,Pro Open,36,1984-04-13
1,M,Aleksey Shevchenko,Алексей Шевченко,103.3,-240,240,260,260,,610,110,SBD,Raw,No,150,160,-165,160,,175,190,-200,190,,Pro Open,36,1984-06-23
1,M,Pavel Zhdanov,Павел Жданов,119.5,270,290,305,305,,755,125,SBD,Raw,No,180,185,190,190,,240,250,260,260,,Pro Open,39,1980-12-03
1,F,Yuliya Medvedeva #1,Юлия Медведева,75,,,,,,220,75,B,Unlimited,No,207.5,220,,220,,,,,,,Pro Open,41,1979-07-08
DQ,F,Marina Morozova,Марина Морозова,74.6,,,,,,,75,B,Unlimited,No,180,,,180,,,,,,,Pro Open,41,1978-10-09
1,F,Yuliya Medvedeva #1,Юлия Медведева,75,,,,,,220,75,B,Unlimited,No,207.5,220,,220,,,,,,,Pro Masters 40-44,41,1979-07-08
1,M,Mikhail Severov,Михаил Северов,86.1,,,,,,230,90,B,Unlimited,No,200,220,230,230,,,,,,,Pro Masters 40-44,44,1975-12-26
1,M,Sergey Borisov,Сергей Борисов,97,,,,,,235,100,B,Unlimited,No,205,235,-245,235,,,,,,,Pro Open,26,1994-05-05
1,M,Vitaliy Sorokotyagin,Виталий Сорокотягин,117,,,,,,360,125,B,Unlimited,No,345,360,-370,360,,,,,,,Pro Open,39,1981-05-28
1,M,Aleksey Morozov,Алексей Морозов,123.2,,,,,,310,125,B,Unlimited,No,310,-330,-330,310,,,,,,,Pro Masters 40-44,41,1979-04-11
1,F,Anastasiya Grebenchenko,Анастасия Гребенченко,61.3,,,,,,70,67.5,B,Raw,No,65,70,-72.5,70,,,,,,,Pro Open,27,1993-02-23
1,M,Dmitriy Aleksandrov,Дмитрий Александров,74.2,,,,,,165,75,B,Raw,No,165,-175,,165,,,,,,,Pro Open,40,1979-12-27
1,M,Dmitriy Aleksandrov,Дмитрий Александров,74.2,,,,,,165,75,B,Raw,No,165,-175,,165,,,,,,,Pro Masters 40-44,40,1979-12-27
1,M,Aleksey Goncharenko,Алексей Гончаренко,81.4,,,,,,185,82.5,B,Raw,No,175,185,-190,185,,,,,,,Pro Open,39,1981-03-24
2,M,Pavel Muzychenko,Павел Музыченко,81.7,,,,,,170,82.5,B,Raw,No,162.5,170,-175,170,,,,,,,Pro Open,40,1980-05-30
1,M,Mikhail Goncharenko,Михаил Гончаренко,79.2,,,,,,182.5,82.5,B,Raw,No,165,175,182.5,182.5,,,,,,,Pro Masters 40-44,42,1977-08-11
2,M,Pavel Muzychenko,Павел Музыченко,81.7,,,,,,170,82.5,B,Raw,No,162.5,170,-175,170,,,,,,,Pro Masters 40-44,40,1980-05-30
1,M,Asan Ibragimov,Асан Ибрагимов,89.7,,,,,,180,90,B,Raw,No,180,-190,-190,180,,,,,,,Pro Open,32,1987-12-04
2,M,Aleksandr Voytekh,Александр Войтех,88.1,,,,,,125,90,B,Raw,No,-120,120,125,125,,,,,,,Pro Open,33,1986-09-02
DQ,M,Sergey Brekhov,Сергей Брехов,99.5,,,,,,,100,B,Raw,No,-155,-160,-160,,,,,,,,Pro Open,34,1986-01-18
1,M,Pavel Brekhov,Павел Брехов,109,,,,,,185,110,B,Raw,No,185,-197.5,-197.5,185,,,,,,,Pro Open,34,1986-01-18
2,M,Ruslan Dyachkov,Руслан Дьячков,106.9,,,,,,170,110,B,Raw,No,160,-170,170,170,,,,,,,Pro Open,26,1994-05-01
DQ,F,Marina Morozova,Марина Морозова,74.6,-200,,,,,,75,SBD,Wraps,No,107,,,107,,210,-220,-220,210,,Pro Open,41,1978-10-09
1,M,Roman Podobay,Роман Подобай,96.6,280,295,-310,295,,737.5,100,SBD,Wraps,No,180,-187.5,187.5,187.5,,220,240,255,255,,Pro Juniors 20-23,22,1998-06-24
DQ,M,Yaroslav Shutyaev,Ярослав Шутяев,115.5,-280,-300,-300,,,,125,SBD,Wraps,No,190,200,-205,200,,280,-295,,280,,Pro Open,30,1990-05-13
1,F,Anzhelika Varsovskaya,Анжелика Варсовская,60,95,102.5,110,110,,237.5,60,SBD,Raw,No,40,45,50,50,,60,70,77.5,77.5,,Pro Masters 45-49,46,1974-06-15
1,F,Tatyana Seredintseva,Татьяна Серединцева,67.1,140,-145,,140,,345,67.5,SBD,Raw,No,65,70,75,75,,105,115,130,130,,Pro Open,41,1979-06-01
1,M,Fedor Baskov,Федор Басков,71.4,145,150,155,155,,405,75,SBD,Raw,No,90,95,100,100,,140,145,150,150,,Pro Teen 13-15,15,2004-11-10
1,M,Boris Vinogradov,Борис Виноградов,91.7,210,220,,220,,550,100,SBD,Raw,No,130,135,-140,135,,180,190,195,195,,Pro Masters 50-54,51,1968-11-23
1,M,Dmitriy Kislitsyn,Дмитрий Кислицын,108.4,-250,250,270,270,,600,110,SBD,Raw,No,150,160,-170,160,,-170,170,-190,170,,Pro Open,39,1980-11-17
