Place,Name,CyrillicName,Country,BirthDate,WeightClassKg,BodyweightKg,Squat1Kg,Squat2Kg,Squat3Kg,Squat4Kg,Bench1Kg,Bench2Kg,Bench3Kg,Bench4Kg,Deadlift1Kg,Deadlift2Kg,Deadlift3Kg,Deadlift4Kg,TotalKg,Division,Sex,Event,Equipment,Tested,Best3SquatKg,Best3BenchKg,Best3DeadliftKg,BirthYear
1,Daniil Matvienko,Данііл Матвієнко,Ukraine,2007-12-04,44,38.6,52.5,55,57.5,,30,35,-37.5,,77.5,-87.5,87.5,,180,Youth,M,SBD,Wraps,Yes,57.5,35,87.5,2007
2,Evgeniy Kurinniy,Євгеній Курінний,Ukraine,2008-06-04,44,34.35,55,60,62.5,,25,30,-35,,80,85,-90,,177.5,Youth,M,SBD,Wraps,Yes,62.5,30,85,2008
1,Sergiy Kurinniy,Сергій Курінний,Ukraine,2003-12-26,56,53.6,95,-100,100,,65,70,-72.5,,130,135,,,305,Teen 13-15,M,SBD,Wraps,Yes,100,70,135,2003
1,Oleg Liba,Олег Либа,Ukraine,2004-02-03,75,70.4,95,-105,105,,77.5,82.5,-87.5,,145,155,165,,352.5,Teen 13-15,M,SBD,Wraps,Yes,105,82.5,165,2004
1,Maksim Sidenko,Максим Сіденко,Ukraine,2003-09-09,67.5,67.35,120,125,130,,120,125,-130,,140,145,150,,405,Teen 16-17,M,SBD,Wraps,Yes,130,125,150,2003
1,Oleksandr Lukyanenko #1,Олександр Лукяненко,Ukraine,2001-11-20,82.5,75.85,165,175,180,,77.5,82.5,87.5,,185,195,-205,,462.5,Teen 16-17,M,SBD,Wraps,Yes,180,87.5,195,2001
2,Igor Voytenko,Ігор Войтенко,Ukraine,2003-06-30,82.5,76.9,142.5,150,155,,85,90,-95,,165,172.5,177.5,,422.5,Teen 16-17,M,SBD,Wraps,Yes,155,90,177.5,2003
1,Andriy Raychuk,Андрій Райчук,Ukraine,2001-03-03,75,72.85,160,170,-182.5,,110,120,-122.5,,190,200,207.5,,497.5,Teen 18-19,M,SBD,Wraps,Yes,170,120,207.5,2001
2,Oleksandr Bordyug,Олександр Бордюг,Ukraine,2000-01-05,75,73.25,170,-180,-185,,-95,100,-105,,180,-190,190,,460,Teen 18-19,M,SBD,Wraps,Yes,170,100,190,2000
1,Yaroslav Slutskiy,Ярослав Слуцький,Ukraine,2001-01-24,82.5,81.25,150,162.5,-170,,110,115,-120,,180,190,192.5,,470,Teen 18-19,M,SBD,Wraps,Yes,162.5,115,192.5,2001
1,Oleksandr Pashkovets,Олександр Пашковець,Ukraine,1997-02-03,100,99.3,260,-270,-270,,125,130,-135,,-260,-260,260,,650,Juniors 20-23,M,SBD,Wraps,Yes,260,130,260,1997
1,Maksim Moskalenko,Максим Москаленко,Ukraine,1996-04-03,110,100.9,230,245,-255,,130,137.5,-142.5,,230,245,-255,,627.5,Juniors 20-23,M,SBD,Wraps,Yes,245,137.5,245,1996
1,Roman Bilonog,Роман Білоног,Ukraine,1998-07-15,125,121.15,270,-290,-300,,190,200,-205,,300,315,-330,,785,Juniors 20-23,M,SBD,Wraps,Yes,270,200,315,1998
2,Bogdan Malginov,Богдан Мальгінов,Ukraine,1998-01-19,125,123,255,-275,275,,165,170,175,,240,-255,-255,,690,Juniors 20-23,M,SBD,Wraps,Yes,275,175,240,1998
1,Denis Tariverdiev,Денис Тарівердієв,Ukraine,1995-08-21,60,59.2,150,160,-170,,100,102.5,-105,,190,-195,-195,,452.5,Open,M,SBD,Wraps,Yes,160,102.5,190,1995
1,Valentin Gontar,Валентин Гонтар,Ukraine,1987-09-26,75,74.2,250,-260,265,,145,-150,-155,,260,-267.5,-267.5,,670,Open,M,SBD,Wraps,Yes,265,145,260,1987
2,Sergiy Shevchenko,Сергій Шевченко,Ukraine,1991-08-13,75,71.65,215,230,235,,120,-125,-125,,225,245,262.5,,617.5,Open,M,SBD,Wraps,Yes,235,120,262.5,1991
1,Ruslan Sichenko,Руслан Сиченко,Ukraine,1988-02-08,82.5,77,140,145,150,,95,100,-102.5,,175,185,-187.5,,435,Open,M,SBD,Wraps,Yes,150,100,185,1988
1,Artem Shitiy,Артем Шитий,Ukraine,1992-08-07,90,89.4,-270,270,-290,,170,-177.5,-177.5,,255,-272.5,-272.5,,695,Open,M,SBD,Wraps,Yes,270,170,255,1992
1,Oleksandr Lisovskiy #1,Олександр Лісовський,Ukraine,1990-01-17,100,98,260,-275,-280,,-162.5,162.5,170,,270,290,-310,,720,Open,M,SBD,Wraps,Yes,260,170,290,1990
2,Stanislav Shubin,Станіслав Шубін,Ukraine,1992-06-30,100,96.5,-230,230,-240,,155,165,-170,,255,-275,-275,,650,Open,M,SBD,Wraps,Yes,230,165,255,1992
3,Oleksiy Zhadko,Олексій Жадько,Ukraine,1991-03-30,100,99.85,190,205,210,,120,132.5,135,,220,240,245,,590,Open,M,SBD,Wraps,Yes,210,135,245,1991
1,Volodimir Moskalenko,Володимир Москаленко,Ukraine,1988-03-08,110,103.25,220,225,-230,,155,-160,-160,,230,240,250,,630,Open,M,SBD,Wraps,Yes,225,155,250,1988
1,Viktor Poshtarenko,Віктор Поштаренко,Ukraine,1970-02-06,90,87.9,200,-210,-215,,130,138.5,-142.5,,210,222.5,232.5,,571,Masters 40-49,M,SBD,Wraps,Yes,200,138.5,232.5,1970
1,Anton Naumovich,Антон Наумович,Ukraine,1977-10-25,100,99,205,212.5,220,,122.5,127.5,130,,210,217.5,222.5,,572.5,Masters 40-49,M,SBD,Wraps,Yes,220,130,222.5,1977
2,Sergiy Pashko,Сергій Пашко,Ukraine,1973-04-06,100,96.05,180,195,205,,120,130,135,,200,210,215,,555,Masters 40-49,M,SBD,Wraps,Yes,205,135,215,1973
3,Yuriy Stetsenko,Юрій Стеценко,Ukraine,1975-09-06,100,97.1,190,200,205,,125,130,-135,,200,210,-217.5,,545,Masters 40-49,M,SBD,Wraps,Yes,205,130,210,1975
1,Valeriy Lanko,Валерій Ланько,Ukraine,1965-01-25,82.5,81.15,160,170,-175,,130,-140,-140,,190,205,-210,,505,Masters 50-59,M,SBD,Wraps,Yes,170,130,205,1965
1,Viktor Stefanov,Віктор Стефанов,Ukraine,1948-11-02,100,99.45,170,-180,-180,,90,-102.5,-102.5,,-160,160,165,,425,Masters 70-79,M,SBD,Wraps,Yes,170,90,165,1948
1,Viktoriya Gorulko,Вікторія Горулько,Ukraine,2004-11-03,60,59.76,-77.5,77.5,80,,50,52.5,-55,,72.5,75,-80,,207.5,Teen 13-15,F,SBD,Wraps,Yes,80,52.5,75,2004
1,Nataliya Kondratenko,Наталія Кондратенко,Ukraine,2002-03-17,56,54.75,75,82.5,85,,35,40,-42.5,,100,-105,105,,230,Teen 16-17,F,SBD,Wraps,Yes,85,40,105,2002
2,Yana Radchenko,Яна Радченко,Ukraine,2002-11-06,56,55.9,80,-85,-87.5,,50,52.5,-55,,80,-85,-85,,212.5,Teen 16-17,F,SBD,Wraps,Yes,80,52.5,80,2002
1,Tetyana Oliynik,Тетяна Олійник,Ukraine,1994-07-31,48,47.5,115,122.5,-130,,50,55,57.5,,110,-117.5,-120,,290,Open,F,SBD,Wraps,Yes,122.5,57.5,110,1994
1,Tora Goldman,Тора Гольдман,Ukraine,1991-06-01,52,50.38,-95,105,-110,,50,57.5,-60,,95,105,107.5,,270,Open,F,SBD,Wraps,Yes,105,57.5,107.5,1991
2,Olga Dushka,Ольга Душка,Ukraine,1988-04-27,52,52,-80,90,-95,,45,-50,-50,,100,105,110,,245,Open,F,SBD,Wraps,Yes,90,45,110,1988
1,Ganna Zemlyanska,Ганна Землянська,Ukraine,1981-03-10,56,54.74,130,-140,-142.5,,60,67.5,-72.5,,135,-145,145,,342.5,Open,F,SBD,Wraps,Yes,130,67.5,145,1981
1,Darina Kovalova,Дарина Ковальова,Ukraine,1990-12-27,60,60,-160,-160,160,,70,-75,-75,,180,190,,,420,Open,F,SBD,Wraps,Yes,160,70,190,1990
2,Nataliya Sokurenko,Наталія Сокуренко,Ukraine,1981-01-12,60,59.06,140,150,155,,70,-75,75,,145,152.5,-157.5,,382.5,Open,F,SBD,Wraps,Yes,155,75,152.5,1981
3,Marina Matvienko,Марина Матвієнко,Ukraine,1989-03-17,60,60,110,120,125,,75,77.5,80,,150,160,165,,370,Open,F,SBD,Wraps,Yes,125,80,165,1989
4,Lyudmila Grishchenko,Людмила Грищенко,Ukraine,1984-10-20,60,59.76,100,-110,110,,50,55,60,,110,120,135,,305,Open,F,SBD,Wraps,Yes,110,60,135,1984
1,Oksana Ostroushko,Оксана Остроушко,Ukraine,1983-04-26,67.5,63.5,107.5,112.5,117.5,,67.5,-70,70,,130,140,150,,337.5,Open,F,SBD,Wraps,Yes,117.5,70,150,1983
2,Anna Vakarenko,Анна Вакаренко,Ukraine,1990-07-11,67.5,65.8,90,100,107.5,,47.5,52.5,55,,120,125,130,,292.5,Open,F,SBD,Wraps,Yes,107.5,55,130,1990
3,Lyudmila Malikhatko,Людмила Маліхатко,Ukraine,1993-03-31,67.5,66.9,95,105,-110,,35,37.5,-40,,100,107.5,-112.5,,250,Open,F,SBD,Wraps,Yes,105,37.5,107.5,1993
1,Svitlana Kravchenko,Світлана Кравченко,Ukraine,1971-05-11,56,55.52,-100,-100,100,,50,-55,55,,105,115,125,,280,Masters 40-49,F,SBD,Wraps,Yes,100,55,125,1971
1,Alla Lanko,Алла Ланько,Ukraine,1965-01-19,52,50.42,80,90,100,,50,55,-57.5,,120,130,135,,290,Masters 50-59,F,SBD,Wraps,Yes,100,55,135,1965
1,Raїsa Salimova,Раїса Салімова,Ukraine,1967-03-13,75,69.1,65,75,-85,,42.5,45,-50,,100,-110,110,,230,Masters 50-59,F,SBD,Wraps,Yes,75,45,110,1967
1,Sergiy Sklyaruk,Сергій Склярук,Ukraine,1998-07-09,90,86.95,230,-245,-250,,140,147.5,-152.5,,250,260,265,,642.5,Juniors 20-23,M,SBD,Wraps,No,230,147.5,265,1998
1,Mikola Belozorov,Микола Белозьоров,Ukraine,1982-12-16,75,74.8,210,-220,227.5,,122.5,127.5,132.5,,230,242.5,250,,610,Open,M,SBD,Wraps,No,227.5,132.5,250,1982
1,Brian Phillips,,USA,1983-07-28,82.5,80.3,-257.5,257.5,-275,,170,-177.5,-177.5,,225,240,247.5,,675,Open,M,SBD,Wraps,No,257.5,170,247.5,1983
2,Dmitro Solonenko,Дмитро Солоненко,Ukraine,1994-06-11,82.5,82,210,-220,-220,,130,140,145,,240,-250,-250,,595,Open,M,SBD,Wraps,No,210,145,240,1994
DQ,Dmitro Yadrentsov,Дмитро Ядренцов,Ukraine,1986-11-16,82.5,80.75,-185,-185,-185,,,,,,,,,,,Open,M,SBD,Wraps,No,,,,1986
1,Mikhaylo Zhelyazkov,Михайло Желязков,Ukraine,1980-09-12,100,94.5,310,-325,330,,175,182.5,185,,310,-320,,,825,Open,M,SBD,Wraps,No,330,185,310,1980
2,Artem Skaletski,Артем Скалецьки,Ukraine,1990-03-17,100,97.8,-260,-280,280,,155,165,170,,270,-290,-290,,720,Open,M,SBD,Wraps,No,280,170,270,1990
3,Sergiy Novokhatskiy,Сергій Новохацький,Ukraine,1982-10-23,100,95.8,-220,220,230,,140,150,-155,,245,260,-265,,640,Open,M,SBD,Wraps,No,230,150,260,1982
1,Denis Palyukh,Денис Палюх,Ukraine,1984-09-27,110,107.6,-260,260,-280,,170,180,-190,,280,290,-300,,730,Open,M,SBD,Wraps,No,260,180,290,1984
3,Leonid Konovalchuk,Леонід Коновальчук,Ukraine,1985-09-03,110,103.9,200,215,220,,160,165,-170,,220,230,240,,625,Open,M,SBD,Wraps,No,220,165,240,1985
1,Maksim Ribalka,Максим Рибалка,Ukraine,1993-09-28,125,115.25,350,362.5,370,,200,-202.5,,,325,332.5,-337.5,,902.5,Open,M,SBD,Wraps,No,370,200,332.5,1993
2,Muskov Hristo,,Bulgaria,1985-12-24,125,118.05,-300,300,325,,190,200,-212.5,,330,340,-350,,865,Open,M,SBD,Wraps,No,325,200,340,1985
3,Igor Kotsyuba,Ігор Коцюба,Ukraine,1982-09-21,125,122.8,280,300,320,,170,180,187.5,,290,305,-312.5,,812.5,Open,M,SBD,Wraps,No,320,187.5,305,1982
1,Sergiy Zimenko,Сергій Зименко,Ukraine,1990-12-26,140,137.15,-320,-320,320,,190,195,-197.5,,320,330,335,,850,Open,M,SBD,Wraps,No,320,195,335,1990
2,Dmitro Kravchinskiy,Дмитро Кравчинський,Ukraine,1982-05-19,140,127.2,230,240,250,,195,207.5,215,,305,312.5,-317.5,,777.5,Open,M,SBD,Wraps,No,250,215,312.5,1982
3,Nazar Kozub,Назар Козуб,Ukraine,1993-08-17,140,129.15,255,275,290,,155,167.5,172.5,,270,300,310,,772.5,Open,M,SBD,Wraps,No,290,172.5,310,1993
1,Grigoriy Barannik,Григорій Бараннік,Ukraine,1990-05-09,140+,150.4,300,310,325,,192.5,205,210,,300,320,-335,,855,Open,M,SBD,Wraps,No,325,210,320,1990
1,Dmytro Solovyov,Дмитро Соловйов,Ukraine,1970-10-03,75,73.8,-220,-220,220,,130,135,-137.5,,230,245,-255,,600,Masters 40-49,M,SBD,Wraps,No,220,135,245,1970
1,Yuriy Kostenko,Юрій Костенко,Ukraine,1971-07-28,100,98.05,-250,260,-275,,160,170,175,,265,-287.5,-287.5,,700,Masters 40-49,M,SBD,Wraps,No,260,175,265,1971
1,Volodimir Kolomiets,Володимир Коломіець,Ukraine,1966-05-09,100,97.95,185,200,-212.5,,145,152.5,,,220,235,-250,,587.5,Masters 50-59,M,SBD,Wraps,No,200,152.5,235,1966
1,Zhaneta Shostak,Жанета Шостак,Ukraine,1972-07-26,75,70.1,102.5,110,117.5,,65,70,72.5,,115,127.5,137.5,,327.5,Masters 40-49,F,SBD,Wraps,No,117.5,72.5,137.5,1972
1,Nikita Naumovich,Нікіта Наумович,Ukraine,2005-07-22,52,49,87.5,-95,95,,50,-55,-55,,100,107.5,-112.5,,252.5,Teen 13-15,M,SBD,Wraps,Yes,95,50,107.5,2005
1,Dmitro Maer,Дмитро Маєр,Ukraine,2002-05-30,90,89.55,130,140,150,,80,85,-87.5,,150,160,-165,,395,Teen 16-17,M,SBD,Wraps,Yes,150,85,160,2002
1,Evgen Lisenko,Євген Лисенко,Ukraine,2002-08-09,100,95.1,130,135,140,,100,105,-110,,150,160,170,,415,Teen 16-17,M,SBD,Wraps,Yes,140,105,170,2002
1,Ruzbeh Jafarinamin,,Iran,1986-05-20,75,74.25,-175,180,190,202.5,125,135,142.5,,200,215,-230,,547.5,Open,M,SBD,Wraps,Yes,190,142.5,215,1986
1,Tetyana Korostel,Тетяна Коростель,Ukraine,2007-01-07,44,36.3,-25,30,35,,20,25,30,,50,65,77.5,,142.5,Youth,F,SBD,Wraps,Yes,35,30,77.5,2007
1,Irina Bugrova,Ірина Бугрова,Ukraine,1981-09-13,60,59.8,77.5,85,90,,50,-52.5,-52.5,,105,-110,-110,,245,Open,F,SBD,Wraps,Yes,90,50,105,1981
1,Nikita Naumovich,Нікіта Наумович,Ukraine,2005-07-22,52,49,,,,,50,-55,-55,,100,107.5,-112.5,,157.5,Teen 13-15,M,BD,Raw,Yes,,50,107.5,2005
1,Sikharulidze Ramazi,,Georgia,1998-11-17,82.5,78.3,,,,,90,100,-105,,170,180,190,,290,Juniors 20-23,M,BD,Raw,Yes,,100,190,1998
1,Valentin Gontar,Валентин Гонтар,Ukraine,1987-09-26,75,74.2,,,,,145,-150,-155,,260,-267.5,-267.5,,405,Open,M,BD,Raw,Yes,,145,260,1987
2,Vadim Makarov,Вадим Макаров,Ukraine,1989-06-09,75,74.35,,,,,115,122.5,-125,,175,-182.5,182.5,,305,Open,M,BD,Raw,Yes,,122.5,182.5,1989
1,Artem Shitiy,Артем Шитий,Ukraine,1992-08-07,90,89.4,,,,,170,-177.5,-177.5,,255,-272.5,-272.5,,425,Open,M,BD,Raw,Yes,,170,255,1992
1,Oleksandr Lisovskiy #1,Олександр Лісовський,Ukraine,1990-01-17,100,98,,,,,-162.5,162.5,170,,270,290,-310,,460,Open,M,BD,Raw,Yes,,170,290,1990
2,Stanislav Shubin,Станіслав Шубін,Ukraine,1992-06-30,100,96.5,,,,,155,165,-170,,255,-275,-275,,420,Open,M,BD,Raw,Yes,,165,255,1992
3,Gabaidze Ramazi,,Georgia,1982-04-15,100,99.8,,,,,130,140,150,,200,220,230,,380,Open,M,BD,Raw,Yes,,150,230,1982
1,Roman Radchuk,Роман Радчук,Ukraine,1989-08-30,125,113.3,,,,,140,150,-160,,200,220,230,,380,Open,M,BD,Raw,Yes,,150,230,1989
1,Anton Naumovich,Антон Наумович,Ukraine,1977-10-25,100,99,,,,,122.5,127.5,130,,210,217.5,222.5,,352.5,Masters 40-49,M,BD,Raw,Yes,,130,222.5,1977
1,Vitaliy Filonenko,Віталій Філоненко,Ukraine,1964-05-18,110,103.25,,,,,132.5,-142.5,142.5,,200,205,-210,,347.5,Masters 50-59,M,BD,Raw,Yes,,142.5,205,1964
1,Viktor Stefanov,Віктор Стефанов,Ukraine,1948-11-02,100,99.45,,,,,90,-102.5,-102.5,,-160,160,165,,255,Masters 70-79,M,BD,Raw,Yes,,90,165,1948
1,Raїsa Salimova,Раїса Салімова,Ukraine,1967-03-13,75,69.1,,,,,42.5,45,-50,,100,-110,110,,155,Masters 50-59,F,BD,Raw,Yes,,45,110,1967
1,Dmitro Nikolaev,Дмитро Ніколаєв,Ukraine,1996-09-11,100,97,,,,,155,165,170,,300,312.5,320,,490,Juniors 20-23,M,BD,Raw,No,,170,320,1996
DQ,Oleksandr Moshenskiy,Олександр Мошенський,Ukraine,1991-06-04,75,72.9,,,,,-135,-135,-135,,,,,,,Open,M,BD,Raw,No,,,,1991
1,Oleksiy Shchotkin,Олексій Щьоткін,Belarus,1975-07-03,82.5,81.65,,,,,150,157.5,160,,205,220,-227.5,,380,Open,M,BD,Raw,No,,160,220,1975
1,Evgen Luk'Yanov,Євген Лук'Янов,Belarus,1980-08-11,90,86.35,,,,,170,-175,-175,,230,240,-245,,410,Open,M,BD,Raw,No,,170,240,1980
2,Denis Dashkovskiy,Денис Дашковський,Belarus,1988-01-18,90,89.65,,,,,140,-150,150,,230,240,245,,395,Open,M,BD,Raw,No,,150,245,1988
1,Vladimir Hristov,,Bulgaria,1983-07-20,100,92.9,,,,,150,157.5,160,,300,312.5,-320,,472.5,Open,M,BD,Raw,No,,160,312.5,1983
2,Sergiy Novokhatskiy,Сергій Новохацький,Ukraine,1982-10-23,100,95.8,,,,,140,150,-155,,245,260,-265,,410,Open,M,BD,Raw,No,,150,260,1982
1,Datuna Mzhavanadze,,Georgia,1972-05-14,110,107.75,,,,,195,202.5,205,,250,260,267.5,272.5,472.5,Open,M,BD,Raw,No,,205,267.5,1972
3,Grigor Penchev,,Bulgaria,1993-07-19,110,105.2,,,,,160,170,177.5,,260,-272.5,,,437.5,Open,M,BD,Raw,No,,177.5,260,1993
1,Oleksandr Tarasov,Олександр Тарасов,Ukraine,1991-10-27,125,123.7,,,,,215,225,-230,,305,320,-335,,545,Open,M,BD,Raw,No,,225,320,1991
2,Eduard Gusev,Едуард Гусєв,Ukraine,1990-07-27,125,111,,,,,145,155,-160,,230,240,250,,405,Open,M,BD,Raw,No,,155,250,1990
1,Igor Zaychuk,Ігор Зайчук,Ukraine,1989-12-02,140,126.25,,,,,215,222.5,230,-235,312.5,327.5,335,,565,Open,M,BD,Raw,No,,230,335,1989
2,Dmitro Kravchinskiy,Дмитро Кравчинський,Ukraine,1982-05-19,140,127.2,,,,,195,207.5,215,,305,312.5,-317.5,,527.5,Open,M,BD,Raw,No,,215,312.5,1982
3,Dmitro Levashov #1,Дмитро Лєвашов,Ukraine,1992-06-07,140,126,,,,,180,190,195,,280,290,-295,,485,Open,M,BD,Raw,No,,195,290,1992
1,Grigoriy Barannik,Григорій Бараннік,Ukraine,1990-05-09,140+,150.4,,,,,192.5,205,210,,300,320,-335,,530,Open,M,BD,Raw,No,,210,320,1990
1,Oleksiy Shchotkin,Олексій Щьоткін,Belarus,1975-07-03,82.5,81.65,,,,,150,157.5,160,,205,220,-227.5,,380,Masters 40-49,M,BD,Raw,No,,160,220,1975
1,Yuriy Kostenko,Юрій Костенко,Ukraine,1971-07-28,100,98.05,,,,,160,170,175,,265,-287.5,-287.5,,440,Masters 40-49,M,BD,Raw,No,,175,265,1971
1,Datuna Mzhavanadze,,Georgia,1972-05-14,110,107.75,,,,,195,202.5,205,,250,260,267.5,272.5,472.5,Masters 40-49,M,BD,Raw,No,,205,267.5,1972
1,Volodimir Kolomiets,Володимир Коломіець,Ukraine,1966-05-09,100,97.95,,,,,145,152.5,,,220,235,-250,,387.5,Masters 50-59,M,BD,Raw,No,,152.5,235,1966
1,Olena Shemetova,Олена Шеметова,Belarus,1982-11-07,60,60,,,,,40,42.5,,,110,120,130,,172.5,Open,F,BD,Raw,No,,42.5,130,1982
1,Zhaneta Shostak,Жанета Шостак,Ukraine,1972-07-26,75,70.1,,,,,65,70,72.5,,115,127.5,137.5,,210,Masters 40-49,F,BD,Raw,No,,72.5,137.5,1972
1,Artem Shitiy,Артем Шитий,Ukraine,1992-08-07,90,89.4,-270,270,-290,,,,,,,,,,270,Open,M,S,Wraps,Yes,270,,,1992
1,Svitlana Kravchenko,Світлана Кравченко,Ukraine,1971-05-11,56,55.52,-100,-100,100,,,,,,,,,,100,Masters 40-49,F,S,Wraps,Yes,100,,,1971
1,Maksim Ribalka,Максим Рибалка,Ukraine,1993-09-28,125,115.25,350,362.5,370,,,,,,,,,,370,Open,M,S,Wraps,No,370,,,1993
1,Artem Klimenko,Артем Клименко,Ukraine,2005-12-20,52,48.04,,,,,62.5,67.5,-70,,,,,,67.5,Teen 13-15,M,B,Raw,Yes,,67.5,,2005
1,Vadim Korenkov,Вадим Коренков,Ukraine,2004-06-05,67.5,62.2,,,,,90,100,-107.5,,,,,,100,Teen 13-15,M,B,Raw,Yes,,100,,2004
1,Andriy Sitnikov,Андрій Сітніков,Ukraine,2003-01-08,60,59.18,,,,,82.5,85,87.5,,,,,,87.5,Teen 16-17,M,B,Raw,Yes,,87.5,,2003
1,Mikola Linnik,Микола Линник,Ukraine,2003-10-02,75,68.23,,,,,85,-90,-92.5,,,,,,85,Teen 16-17,M,B,Raw,Yes,,85,,2003
1,Egor Redka,Єгор Редька,Ukraine,2003-04-12,82.5,77.95,,,,,110,115,-120,,,,,,115,Teen 16-17,M,B,Raw,Yes,,115,,2003
1,Andriy Kurskoy,Андрій Курской,Belarus,1996-11-09,82.5,82.1,,,,,145,150,-155,,,,,,150,Juniors 20-23,M,B,Raw,Yes,,150,,1996
1,Sergiy Seleznov,Сергій Селезньов,Ukraine,1996-04-13,100,97.8,,,,,145,152.5,-155,,,,,,152.5,Juniors 20-23,M,B,Raw,Yes,,152.5,,1996
1,Danilo Bobko,Данило Бобко,Ukraine,1989-05-06,75,72.45,,,,,142.5,-150,-150,,,,,,142.5,Open,M,B,Raw,Yes,,142.5,,1989
2,Roman Makarenko,Роман Макаренко,Ukraine,1988-04-29,75,74,,,,,127.5,132.5,135,,,,,,135,Open,M,B,Raw,Yes,,135,,1988
3,Evgen Naumenko,Євген Науменко,Ukraine,1989-06-22,75,73,,,,,127.5,-132.5,-135,,,,,,127.5,Open,M,B,Raw,Yes,,127.5,,1989
1,Evgeniy Boloban,Євгеній Болобан,Ukraine,1996-08-28,82.5,80.2,,,,,190,200,205.5,,,,,,205.5,Open,M,B,Raw,Yes,,205.5,,1996
2,Yuriy Klimenko,Юрій Клименко,Ukraine,1982-01-30,82.5,80.05,,,,,150,162.5,170,,,,,,170,Open,M,B,Raw,Yes,,170,,1982
3,Andriy Kultishev,Андрій Култишев,Ukraine,1988-09-27,82.5,79.95,,,,,157.5,-167.5,-167.5,,,,,,157.5,Open,M,B,Raw,Yes,,157.5,,1988
4,Vladislav Zaytsev,Владислав Зайцев,Ukraine,1995-07-24,82.5,82.5,,,,,150,157.5,-160,,,,,,157.5,Open,M,B,Raw,Yes,,157.5,,1995
5,Volodimir Filyuk,Володимир Філюк,Ukraine,1993-06-02,82.5,80.5,,,,,145,-150,-150,,,,,,145,Open,M,B,Raw,Yes,,145,,1993
DQ,Illya Melnik-Golovatyuk,Ілля Мельник-Головатюк,Ukraine,1995-08-03,82.5,80.85,,,,,-130,-130,,,,,,,,Open,M,B,Raw,Yes,,,,1995
1,Ogli Gadzhiev Vyugar Rovshan,Огли Гаджієв Вюгар Ровшан,Ukraine,1985-10-11,90,86.5,,,,,150,155,157.5,,,,,,157.5,Open,M,B,Raw,Yes,,157.5,,1985
2,Oleksandr Borisevich,Олександр Борисевич,Ukraine,1993-01-15,90,87.85,,,,,155,-162.5,-162.5,,,,,,155,Open,M,B,Raw,Yes,,155,,1993
3,Evgeniy Gorbatiy,Євгеній Горбатий,Ukraine,1993-06-10,90,88,,,,,145,-152.5,-152.5,,,,,,145,Open,M,B,Raw,Yes,,145,,1993
DD,Viktor Borinets,Віктор Боринец,Ukraine,1989-07-15,90,89.65,,,,,190,200,202.5,,,,,,,Open,M,B,Raw,Yes,,202.5,,1989
1,Sergiy Shepel,Сергій Шепель,Ukraine,1983-03-28,100,98.05,,,,,180,190,-192.5,,,,,,190,Open,M,B,Raw,Yes,,190,,1983
2,Sergey Kakhanchik,,Belarus,1986-09-19,100,93.15,,,,,170,175,177.5,,,,,,177.5,Open,M,B,Raw,Yes,,177.5,,1986
3,Oleksandr Lisovskiy #1,Олександр Лісовський,Ukraine,1990-01-17,100,98,,,,,-162.5,162.5,170,,,,,,170,Open,M,B,Raw,Yes,,170,,1990
4,Denis Goncharenko,,Belarus,1982-12-08,100,100,,,,,160,162.5,-170,,,,,,162.5,Open,M,B,Raw,Yes,,162.5,,1982
5,Sergiy Bilik,Сергій Білик,Ukraine,1985-07-23,100,95.1,,,,,150,-155,-155,,,,,,150,Open,M,B,Raw,Yes,,150,,1985
6,Vadim Sirik,Вадим Сірик,Ukraine,1988-10-08,100,94.75,,,,,130,135,-137.5,,,,,,135,Open,M,B,Raw,Yes,,135,,1988
1,Roman Khokhlov,Роман Хохлов,Ukraine,1987-05-18,110,109.25,,,,,160,167.5,-172.5,,,,,,167.5,Open,M,B,Raw,Yes,,167.5,,1987
1,Maksim Shalamov,Максим Шаламов,Ukraine,1985-01-22,140,132.8,,,,,92.5,97.5,-102.5,,,,,,97.5,Open,M,B,Raw,Yes,,97.5,,1985
1,Evgeniy Rudenko,Евгений Руденко,Ukraine,1978-05-07,75,74.3,,,,,127.5,-130,-130,,,,,,127.5,Masters 40-49,M,B,Raw,Yes,,127.5,,1978
1,Volodimir Maer,Володимир Маєр,Ukraine,1976-09-22,90,88.25,,,,,100,105,-110,,,,,,105,Masters 40-49,M,B,Raw,Yes,,105,,1976
1,Dmitro Pronevich,Дмитро Проневич,Ukraine,1975-10-27,100,92.9,,,,,165,170,-172.5,,,,,,170,Masters 40-49,M,B,Raw,Yes,,170,,1975
2,Oleksandr Lisovskiy #2,Олександр Лісовський,Ukraine,1975-09-02,100,91.55,,,,,130,135,140,,,,,,140,Masters 40-49,M,B,Raw,Yes,,140,,1975
1,Igor Zhuravko,Ігор Журавко,Ukraine,1968-06-23,90,88.25,,,,,125,135,140,,,,,,140,Masters 50-59,M,B,Raw,Yes,,140,,1968
2,Yuriy Digtyar,Юрій Дігтяр,Ukraine,1962-09-20,90,87.85,,,,,125,130,-132.5,,,,,,130,Masters 50-59,M,B,Raw,Yes,,130,,1962
1,Sergiy Eletskikh,,Cyprus,1956-05-06,140+,160,,,,,150,-155,-155,,,,,,150,Masters 60-69,M,B,Raw,Yes,,150,,1956
1,Anastasiya Rudnichenko,Анастасія Рудніченко,Ukraine,2004-11-19,67.5,64,,,,,72.5,75,-80,,,,,,75,Teen 13-15,F,B,Raw,Yes,,75,,2004
1,Maria Tukach,,Belarus,1997-10-30,48,47.6,,,,,52.5,-55,-55,,,,,,52.5,Juniors 20-23,F,B,Raw,Yes,,52.5,,1997
1,Irina Danilyuk,Ірина Данилюк,Ukraine,1971-04-18,60,58.8,,,,,82.5,87.5,-90.5,,,,,,87.5,Open,F,B,Raw,Yes,,87.5,,1971
2,Nataliya Sokurenko,Наталія Сокуренко,Ukraine,1981-01-12,60,59.06,,,,,70,-75,75,,,,,,75,Open,F,B,Raw,Yes,,75,,1981
3,Rimma Sokolovska,Римма Соколовська,Ukraine,1993-03-24,60,58.84,,,,,45,-50,-50,,,,,,45,Open,F,B,Raw,Yes,,45,,1993
1,Oksana Ostroushko,Оксана Остроушко,Ukraine,1983-04-26,67.5,63.5,,,,,67.5,-70,70,,,,,,70,Open,F,B,Raw,Yes,,70,,1983
1,Yuliya Olizarenko,Юлія Олізаренко,Ukraine,1989-04-30,75,75,,,,,105,-107.5,-107.5,,,,,,105,Open,F,B,Raw,Yes,,105,,1989
2,Anna Khomenko,Анна Хоменко,Ukraine,1991-03-01,75,74.6,,,,,67.5,70,-72.5,,,,,,70,Open,F,B,Raw,Yes,,70,,1991
1,Tetyana Shapovalova,Тетяна Шаповалова,Ukraine,1978-03-15,60,57.96,,,,,40,45,-50,,,,,,45,Masters 40-49,F,B,Raw,Yes,,45,,1978
1,Valeriy Rozhanskiy,Валерій Рожанський,Ukraine,2003-09-24,67.5,65.4,,,,,-80,80,85,,,,,,85,Teen 16-17,M,B,Raw,No,,85,,2003
1,Valeriy Zimozdra,Валерій Зімоздра,Ukraine,1996-11-16,90,88,,,,,185,195,-200,,,,,,195,Juniors 20-23,M,B,Raw,No,,195,,1996
1,Maksim Novichenko,Максим Новыченко,Ukraine,1993-04-29,44,40.68,,,,,120,127.5,132.5,,,,,,132.5,Open,M,B,Raw,No,,132.5,,1993
1,Maksim Mutskiy,Максим Муцький,Ukraine,1986-04-14,82.5,78.6,,,,,150,-160,-160,,,,,,150,Open,M,B,Raw,No,,150,,1986
1,Artem Kots,Артем Коц,Ukraine,1987-06-20,90,89.4,,,,,187.5,-195,195,,,,,,195,Open,M,B,Raw,No,,195,,1987
3,Andriy Kotovenko,Андрій Котовенко,Ukraine,1983-01-16,90,87.85,,,,,165,-170,-170,,,,,,165,Open,M,B,Raw,No,,165,,1983
1,Oleksiy Bronishevskiy,Олексій Бронішевський,Ukraine,1988-03-26,100,93,,,,,210,215,-220,,,,,,215,Open,M,B,Raw,No,,215,,1988
3,Viktor Rublyov,Віктор Рубльов,Ukraine,1975-10-26,100,98.75,,,,,180,-187.5,-187.5,,,,,,180,Open,M,B,Raw,No,,180,,1975
1,Vitaliy Chiruk,Віталій Чирук,Ukraine,1986-06-03,110,107.5,,,,,195,-197.5,-197.5,,,,,,195,Open,M,B,Raw,No,,195,,1986
3,Grigor Penchev,,Bulgaria,1993-07-19,110,105.2,,,,,160,170,177.5,,,,,,177.5,Open,M,B,Raw,No,,177.5,,1993
1,Oleksandr Tarasov,Олександр Тарасов,Ukraine,1991-10-27,125,123.7,,,,,215,225,-230,,,,,,225,Open,M,B,Raw,No,,225,,1991
1,Igor Zaychuk,Ігор Зайчук,Ukraine,1989-12-02,140,126.25,,,,,215,222.5,230,-235,,,,,230,Open,M,B,Raw,No,,230,,1989
2,Dmitro Kravchinskiy,Дмитро Кравчинський,Ukraine,1982-05-19,140,127.2,,,,,195,207.5,215,,,,,,215,Open,M,B,Raw,No,,215,,1982
3,Roman Pyatak,Роман Пятак,Ukraine,1981-01-20,140,127.5,,,,,202.5,207.5,-212.5,,,,,,207.5,Open,M,B,Raw,No,,207.5,,1981
4,Nazar Kozub,Назар Козуб,Ukraine,1993-08-17,140,129.15,,,,,155,167.5,172.5,,,,,,172.5,Open,M,B,Raw,No,,172.5,,1993
1,Grigoriy Barannik,Григорій Бараннік,Ukraine,1990-05-09,140+,150.4,,,,,192.5,205,210,,,,,,210,Open,M,B,Raw,No,,210,,1990
1,Oleksiy Shchotkin,Олексій Щьоткін,Belarus,1975-07-03,82.5,81.65,,,,,150,157.5,160,,,,,,160,Masters 40-49,M,B,Raw,No,,160,,1975
DQ,Yuriy Servetskiy,Юрій Сервецький,Ukraine,1977-06-07,90,88.8,,,,,-160,-160,-160,,,,,,,Masters 40-49,M,B,Raw,No,,,,1977
1,Andriy Petruk,Андрій Петрук,Ukraine,1975-01-15,100,97.7,,,,,190,-200,-200,,,,,,190,Masters 40-49,M,B,Raw,No,,190,,1975
2,Viktor Rublyov,Віктор Рубльов,Ukraine,1975-10-26,100,98.75,,,,,180,-187.5,-187.5,,,,,,180,Masters 40-49,M,B,Raw,No,,180,,1975
1,Datuna Mzhavanadze,,Georgia,1972-05-14,110,107.75,,,,,195,202.5,205,,,,,,205,Masters 40-49,M,B,Raw,No,,205,,1972
2,Andriy Shlyama,Андрій Шляма,Ukraine,1976-04-20,110,106.7,,,,,180,185,190,,,,,,190,Masters 40-49,M,B,Raw,No,,190,,1976
1,Sergiy Dromov,Сергій Дрьомов,Ukraine,1968-11-10,110,106.6,,,,,190,202.5,210,,,,,,210,Masters 50-59,M,B,Raw,No,,210,,1968
1,Igor Furmanov,Ігор Фурманов,Belarus,1968-04-24,125,112.05,,,,,140,-152.5,-152.5,,,,,,140,Masters 50-59,M,B,Raw,No,,140,,1968
1,Evgen Cherevatiy,Євген Череватий,Ukraine,1988-08-27,100,98.8,,,,,195,215,-225,,,,,,215,Open,M,B,Multi-ply,No,,215,,1988
DQ,Irakli Tskhovrebashvili,,Georgia,1981-05-09,100,91.4,,,,,-210,-215,,,,,,,,Open,M,B,Multi-ply,No,,,,1981
1,Renata Ignatova,Рената Ігнатова,Ukraine,2004-11-05,67.5,67.5,,,,,75,82.5,-90,,,,,,82.5,Teen 13-15,F,B,Multi-ply,No,,82.5,,2004
1,Dmitro Bondarev #2,Дмитро Бондарєв,Belarus,1984-11-19,110,107.25,,,,,170,-185,-185,,,,,,170,Open,M,B,Multi-ply,No,,170,,1984
DQ,Adelaida Poddueva,Аделаїда Поддуєва,Ukraine,1989-10-12,67.5,64.3,,,,,-142.5,-142.5,,,,,,,,Open,F,B,Multi-ply,No,,,,1989
1,Zhaneta Shostak,Жанета Шостак,Ukraine,1972-07-26,75,70.1,,,,,87.5,-95,100,,,,,,100,Masters 40-49,F,B,Multi-ply,No,,100,,1972
1,Andriy Raychuk,Андрій Райчук,Ukraine,2001-03-03,75,72.85,,,,,,,,,190,200,207.5,,207.5,Teen 18-19,M,D,Raw,Yes,,,207.5,2001
1,Ruslan Klokun,Руслан Клокун,Ukraine,2001-05-16,110,106.1,,,,,,,,,215,225,-247.5,,225,Teen 18-19,M,D,Raw,Yes,,,225,2001
1,Roman Demonenko,Роман Демоненко,Ukraine,1996-02-21,75,71.35,,,,,,,,,190,210,220,,220,Juniors 20-23,M,D,Raw,Yes,,,220,1996
1,Leonid Danilenko,Леонід Даниленко,Ukraine,1996-03-06,82.5,81.2,,,,,,,,,220,235,-250,,235,Juniors 20-23,M,D,Raw,Yes,,,235,1996
2,Denis Smagliy,Денис Смаглій,Ukraine,1997-08-05,82.5,78.25,,,,,,,,,230,-240,-240,,230,Juniors 20-23,M,D,Raw,Yes,,,230,1997
1,Mikhaylo Bilan,Михайло Білан,Ukraine,1996-11-29,90,85.8,,,,,,,,,200,215,-230,,215,Juniors 20-23,M,D,Raw,Yes,,,215,1996
1,Maksim Moskalenko,Максим Москаленко,Ukraine,1996-04-03,110,100.9,,,,,,,,,230,245,-255,,245,Juniors 20-23,M,D,Raw,Yes,,,245,1996
1,Denis Tariverdiev,Денис Тарівердієв,Ukraine,1995-08-21,60,59.2,,,,,,,,,190,-195,-195,,190,Open,M,D,Raw,Yes,,,190,1995
DQ,Valentin Gontar,Валентин Гонтар,Ukraine,1987-09-26,75,74.2,,,,,,,,,-260,-260,-260,,,Open,M,D,Raw,Yes,,,,1987
1,Oleksandr Drobilko,Олександр Дробілко,Ukraine,1972-11-13,90,86.25,,,,,,,,,245,255,261,,261,Open,M,D,Raw,Yes,,,261,1972
2,Oleksandr Lisovskiy #1,Олександр Лісовський,Ukraine,1990-01-17,100,98,,,,,,,,,270,290,-310,,290,Open,M,D,Raw,Yes,,,290,1990
3,Evgeniy Omelyanovskiy,Євгеній Омельяновський,Ukraine,1989-09-20,100,99,,,,,,,,,245,255,265,,265,Open,M,D,Raw,Yes,,,265,1989
4,Stanislav Shubin,Станіслав Шубін,Ukraine,1992-06-30,100,96.5,,,,,,,,,255,-275,-275,,255,Open,M,D,Raw,Yes,,,255,1992
5,Sergiy Klevtsov,Сергій Клєвцов,Ukraine,1995-08-08,100,97.1,,,,,,,,,205,210,215,,215,Open,M,D,Raw,Yes,,,215,1995
1,Volodimir Ogloblin,Володимир Оглоблін,Ukraine,1965-08-15,110,106.9,,,,,,,,,270,-275,-275,,270,Open,M,D,Raw,Yes,,,270,1965
1,Mikola Yanushev,Микола Янушев,Ukraine,1976-12-05,75,67.95,,,,,,,,,227.5,-232.5,-232.5,,227.5,Masters 40-49,M,D,Raw,Yes,,,227.5,1976
1,Oleksandr Drobilko,Олександр Дробілко,Ukraine,1972-11-13,90,86.25,,,,,,,,,245,255,261,,261,Masters 40-49,M,D,Raw,Yes,,,261,1972
2,Viktor Poshtarenko,Віктор Поштаренко,Ukraine,1970-02-06,90,87.9,,,,,,,,,210,222.5,232.5,,232.5,Masters 40-49,M,D,Raw,Yes,,,232.5,1970
1,Volodimir Ogloblin,Володимир Оглоблін,Ukraine,1965-08-15,110,106.9,,,,,,,,,270,-275,-275,,270,Masters 50-59,M,D,Raw,Yes,,,270,1965
1,Viktor Stefanov,Віктор Стефанов,Ukraine,1948-11-02,100,99.45,,,,,,,,,-160,160,165,,165,Masters 70-79,M,D,Raw,Yes,,,165,1948
1,Antonina Artyukhovich,Антоніна Артюхович,Ukraine,1990-09-02,52,50.16,,,,,,,,,110,122.5,-125,,122.5,Open,F,D,Raw,Yes,,,122.5,1990
1,Darina Kovalova,Дарина Ковальова,Ukraine,1990-12-27,60,60,,,,,,,,,180,190,,,190,Open,F,D,Raw,Yes,,,190,1990
2,Marina Matvienko,Марина Матвієнко,Ukraine,1989-03-17,60,60,,,,,,,,,150,160,165,,165,Open,F,D,Raw,Yes,,,165,1989
3,Nataliya Sokurenko,Наталія Сокуренко,Ukraine,1981-01-12,60,59.06,,,,,,,,,145,152.5,-157.5,,152.5,Open,F,D,Raw,Yes,,,152.5,1981
1,Oksana Ostroushko,Оксана Остроушко,Ukraine,1983-04-26,67.5,63.5,,,,,,,,,130,140,150,,150,Open,F,D,Raw,Yes,,,150,1983
2,Irina Zhelyazkova,Ірина Желязкова,Ukraine,1992-10-16,67.5,61.3,,,,,,,,,120,130,135,,135,Open,F,D,Raw,Yes,,,135,1992
1,Yuliya Olizarenko,Юлія Олізаренко,Ukraine,1989-04-30,75,75,,,,,,,,,195,-200,-200,,195,Open,F,D,Raw,Yes,,,195,1989
1,Dmitro Nikolaev,Дмитро Ніколаєв,Ukraine,1996-09-11,100,97,,,,,,,,,300,312.5,320,,320,Juniors 20-23,M,D,Raw,No,,,320,1996
1,Mikola Belozorov,Микола Белозьоров,Ukraine,1982-12-16,75,74.8,,,,,,,,,230,242.5,250,,250,Open,M,D,Raw,No,,,250,1982
2,Oleksandr Moshenskiy,Олександр Мошенський,Ukraine,1991-06-04,75,72.9,,,,,,,,,205,210,215,,215,Open,M,D,Raw,No,,,215,1991
1,Dmitro Solonenko,Дмитро Солоненко,Ukraine,1994-06-11,82.5,82,,,,,,,,,240,-250,-250,,240,Open,M,D,Raw,No,,,240,1994
1,Denis Dashkovskiy,Денис Дашковський,Belarus,1988-01-18,90,89.65,,,,,,,,,230,240,245,,245,Open,M,D,Raw,No,,,245,1988
2,Evgen Luk'Yanov,Євген Лук'Янов,Belarus,1980-08-11,90,86.35,,,,,,,,,230,240,-245,,240,Open,M,D,Raw,No,,,240,1980
1,Vladimir Hristov,,Bulgaria,1983-07-20,100,92.9,,,,,,,,,300,312.5,-320,,312.5,Open,M,D,Raw,No,,,312.5,1983
2,Mikhaylo Zhelyazkov,Михайло Желязков,Ukraine,1980-09-12,100,94.5,,,,,,,,,310,-320,,,310,Open,M,D,Raw,No,,,310,1980
3,Radion Shovkun,Радіон Шовкун,Ukraine,1981-12-15,100,97.5,,,,,,,,,245,255,265,,265,Open,M,D,Raw,No,,,265,1981
4,Sergiy Novokhatskiy,Сергій Новохацький,Ukraine,1982-10-23,100,95.8,,,,,,,,,245,260,-265,,260,Open,M,D,Raw,No,,,260,1982
1,Zhorzh Togola,Жорж Тогола,Ukraine,1989-04-05,110,109.9,,,,,,,,,345,-352.5,,,345,Open,M,D,Raw,No,,,345,1989
2,Grigor Penchev,,Bulgaria,1993-07-19,110,105.2,,,,,,,,,260,-272.5,,,260,Open,M,D,Raw,No,,,260,1993
1,Muskov Hristo,,Bulgaria,1985-12-24,125,118.05,,,,,,,,,330,340,-350,,340,Open,M,D,Raw,No,,,340,1985
2,Maksim Ribalka,Максим Рибалка,Ukraine,1993-09-28,125,115.25,,,,,,,,,325,332.5,-337.5,,332.5,Open,M,D,Raw,No,,,332.5,1993
3,Oleksandr Tarasov,Олександр Тарасов,Ukraine,1991-10-27,125,123.7,,,,,,,,,305,320,-335,,320,Open,M,D,Raw,No,,,320,1991
1,Igor Zaychuk,Ігор Зайчук,Ukraine,1989-12-02,140,126.25,,,,,,,,,312.5,327.5,335,,335,Open,M,D,Raw,No,,,335,1989
2,Dmitro Kravchinskiy,Дмитро Кравчинський,Ukraine,1982-05-19,140,127.2,,,,,,,,,305,312.5,-317.5,,312.5,Open,M,D,Raw,No,,,312.5,1982
3,Nazar Kozub,Назар Козуб,Ukraine,1993-08-17,140,129.15,,,,,,,,,270,300,310,,310,Open,M,D,Raw,No,,,310,1993
1,Grigoriy Barannik,Григорій Бараннік,Ukraine,1990-05-09,140+,150.4,,,,,,,,,300,320,-335,,320,Open,M,D,Raw,No,,,320,1990
1,Yuriy Kostenko,Юрій Костенко,Ukraine,1971-07-28,100,98.05,,,,,,,,,265,-287.5,-287.5,,265,Masters 40-49,M,D,Raw,No,,,265,1971
1,Volodimir Lukyanov,Володимир Лук'янов,Belarus,1966-02-18,100,100,,,,,,,,,240,250,260,,260,Masters 50-59,M,D,Raw,No,,,260,1966
2,Volodimir Kolomiets,Володимир Коломіець,Ukraine,1966-05-09,100,97.95,,,,,,,,,220,235,-250,,235,Masters 50-59,M,D,Raw,No,,,235,1966
1,Igor Furmanov,Ігор Фурманов,Belarus,1968-04-24,125,112.05,,,,,,,,,210,220,,,220,Masters 50-59,M,D,Raw,No,,,220,1968
1,Svitlana Sinyuta,Світлана Синюта,Ukraine,1987-06-14,60,60,,,,,,,,,160,170,175,,175,Open,F,D,Raw,No,,,175,1987
2,Olena Shemetova,Олена Шеметова,Belarus,1982-11-07,60,60,,,,,,,,,110,120,130,,130,Open,F,D,Raw,No,,,130,1982
1,Ruslan Timoshenko,Руслан Тимошенко,Ukraine,1990-08-31,100,96.75,,,,,,,,,290,300,310,,310,Open,M,D,Multi-ply,Yes,,,310,1990
