Place,Name,CyrillicName,BodyweightKg,Bench1Kg,Bench2Kg,Bench3Kg,TotalKg,WeightClassKg,Division,Sex,Event,Equipment,Best3BenchKg,BirthYear
1,Lina Zubritska,Ліна Зубрицька,51.3,70,77.5,82.5,82.5,52,Pro Juniors 20-23,F,B,Raw,82.5,1988
1,Marina Korimenko,Марина Корименко,52.8,32.5,35,37.5,37.5,56,Pro Juniors 20-23,F,B,Raw,37.5,1988
1,Olga Grushevska,Ольга Грушевська,71.9,45,47.5,50,50,75,Pro Juniors 20-23,F,B,Raw,50,1989
2,Oksana Piskarova,Оксана Піскарьова,75,47.5,50,-52.5,50,75,Pro Juniors 20-23,F,B,Raw,50,1990
1,Olga Mala,Ольга Мала,55.9,40,-42.5,-42.5,40,56,Pro Open,F,B,Raw,40,1976
1,Inga Grib,Інга Гриб,59.5,57.5,62.5,-65,62.5,60,Pro Open,F,B,Raw,62.5,1976
2,Nadiya Kaydan,Надія Кайдан,59.95,-27.5,30,-37.5,30,60,Pro Open,F,B,Raw,30,1985
1,Tetyana Ovsienko,Тетяна Овсієнко,82.5,57.5,-60,,57.5,82.5,Pro Open,F,B,Raw,57.5,1975
1,Tetyana Dzhivinska,Тетяна Дживінська,93.9,55,57.5,-60,57.5,100,Pro Open,F,B,Raw,57.5,1976
1,Lyudmila Tsvetkova,Людмила Цветкова,55.6,47.5,50,52.5,52.5,56,Pro Masters 50-54,F,B,Raw,52.5,1961
1,Irina Kabakova,Ирина Кабакова,66.4,45,47.5,-50,47.5,67.5,Pro Masters 50-54,F,B,Raw,47.5,1959
1,Nataliya Tsukanova,Наталія Цуканова,82,75,80,-90,80,82.5,Pro Masters 55-59,F,B,Raw,80,1956
1,Artur Sozinov,Артур Созінов,57.2,50,55,-57.5,55,60,Pro Teen 13-15,M,B,Raw,55,1998
1,Andriy Rudoy,Андрій Рудой,66.2,85,90,95,95,67.5,Pro Teen 13-15,M,B,Raw,95,1995
1,Vladislav Kovalenko,Владислав Коваленко,67.4,90,95,-97.5,95,67.5,Pro Teen 16-17,M,B,Raw,95,1995
1,Eduard Sushko,Едуард Сушко,81,125,-130,-135,125,82.5,Pro Teen 16-17,M,B,Raw,125,1993
1,Pavlo Isakov,Павел Исаков,58.1,85,-90,-90,85,60,Pro Teen 18-19,M,B,Raw,85,1991
1,Igor Kurtis,Ігор Куртіс,65.4,87.5,92.5,-97.5,92.5,67.5,Pro Teen 18-19,M,B,Raw,92.5,1991
1,Ibraim Muratov,Ібраім Муратов,74.8,140,147.5,150,150,75,Pro Teen 18-19,M,B,Raw,150,1991
1,Maksim Golovin,Максим Головін,94.2,150,157.5,-162.5,157.5,100,Pro Teen 18-19,M,B,Raw,157.5,1993
1,Andriy Verkhovtsev,Андрій Верховцев,73.15,125,-135,135,135,75,Pro Juniors 20-23,M,B,Raw,135,1991
DQ,Sergiy Bragin,Сергій Брагін,68.9,-155,-155,-155,,75,Pro Juniors 20-23,M,B,Raw,,1991
1,Sergiy Sarkisyan,Сергій Саркісян,82.3,135,140,-150,140,82.5,Pro Juniors 20-23,M,B,Raw,140,1989
2,Dmitro Gavrilyuk,Дмитро Гаврилюк,82.5,120,125,-130,125,82.5,Pro Juniors 20-23,M,B,Raw,125,1989
1,Oleksiy Grigorenko,Олексій Григоренко,85.5,107.5,112.5,-117.5,112.5,90,Pro Juniors 20-23,M,B,Raw,112.5,1988
1,Vitaliy Demedyuk,Віталій Демедюк,96.1,127.5,-132.5,-132.5,127.5,100,Pro Juniors 20-23,M,B,Raw,127.5,1989
1,Mikhaylo Kozelchuk,Михайло Козельчук,101.4,155,165,170,170,110,Pro Juniors 20-23,M,B,Raw,170,1988
2,Oleksandr Chorniy,Олександр Чорний,110,160,170,-172.5,170,110,Pro Juniors 20-23,M,B,Raw,170,1988
3,Evgen Maklakov,Євген Маклаков,101.7,120,127.5,-132.5,127.5,110,Pro Juniors 20-23,M,B,Raw,127.5,1987
1,Viktor Balika,Віктор Балика,66.5,135,-140,-140,135,67.5,Pro Open,M,B,Raw,135,1982
2,Vadim Mishin,Вадим Мішин,63.5,100,-105,110,110,67.5,Pro Open,M,B,Raw,110,1984
3,Sergiy Toporen,Сергій Топорен,67.5,95,100,105,105,67.5,Pro Open,M,B,Raw,105,1987
4,Vladislav Gorbenko,Владислав Горбенко,62.5,97.5,102.5,-105,102.5,67.5,Pro Open,M,B,Raw,102.5,1972
5,Maksim Lastovskiy,Максим Ластовский,63,85,90,-92.5,90,67.5,Pro Open,M,B,Raw,90,1974
1,Dmitro Cherkay,Дмитро Черкай,69.2,-125,125,-135,125,75,Pro Open,M,B,Raw,125,1985
DQ,Sergiy Bragin,Сергій Брагін,68.9,-155,-155,-155,,75,Pro Open,M,B,Raw,,1991
DQ,Anton Gaydaenko,Антон Гайдаєнко,72.6,,,,,75,Pro Open,M,B,Raw,,1986
1,Maksim Boyarskiy #1,Максим Боярський,81,-105,110,115,115,82.5,Pro Open,M,B,Raw,115,1984
2,Mikola Semikin,Микола Семікін,77,105,-110,110,110,82.5,Pro Open,M,B,Raw,110,1986
1,Oleksandr Shcherbakov,Олександр Щербаков,90,202.5,212.5,220,220,90,Pro Open,M,B,Raw,220,1966
2,Konstyantin Grabovskiy,Констянтин Грабовський,89,185,-190,-190,185,90,Pro Open,M,B,Raw,185,1976
1,Maksim Kaydan,Максим Кайдан,97.95,185,-192.5,192.5,192.5,100,Pro Open,M,B,Raw,192.5,1985
2,Dmitro Lomeyko,Дмитро Ломейко,91.2,175,185,-192.5,185,100,Pro Open,M,B,Raw,185,1983
3,Oleksandr Izopolskiy,Олександр Ізопольський,100,150,-162.5,162.5,162.5,100,Pro Open,M,B,Raw,162.5,1983
4,Sergiy Vereshchak,Сергій Верещак,95,150,160,-162.5,160,100,Pro Open,M,B,Raw,160,1975
5,Leonid Matyukhin,Леонід Матюхін,96.6,155,-162.5,-162.5,155,100,Pro Open,M,B,Raw,155,1977
1,Volodimir Sosnov,Володимир Соснов,103,160,-170,-170,160,110,Pro Open,M,B,Raw,160,1982
2,Sergiy Shumskiy,Сергій Шумський,101,135,140,152.5,152.5,110,Pro Open,M,B,Raw,152.5,1985
3,Vitaliy Savelev #1,Віталій Савельєв,101.8,135,145,-150,145,110,Pro Open,M,B,Raw,145,1979
4,Oleksiy Gurtoviy,Олексій Гуртовий,104.4,125,130,-132.5,130,110,Pro Open,M,B,Raw,130,1984
1,Vitaliy Chorniy,Віталій Чорний,124.9,200,210,215,215,125,Pro Open,M,B,Raw,215,1984
2,Pavlo Trigub,Павло Тригуб,116,180,190,-200,190,125,Pro Open,M,B,Raw,190,1973
DQ,Dmitro Zhvaviy,Дмитро Жвавий,116.6,-200,-200,-200,,125,Pro Open,M,B,Raw,,1978
1,Oleksandr Shvab,Олександр Шваб,126.9,165,,,165,140,Pro Open,M,B,Raw,165,1976
1,Oleksandr Leshukov,Олександр Лешуков,98.6,90,100,105,105,100,Pro Masters 40-44,M,B,Raw,105,1968
1,Grigoriy Miroshnichenko,Григорій Мірошніченко,82.5,120,125,130,130,82.5,Pro Masters 45-49,M,B,Raw,130,1964
1,Sergiy Makeenko,Сергій Макеєнко,89,140,147.5,-152.5,147.5,90,Pro Masters 45-49,M,B,Raw,147.5,1964
2,Dmitro Kabakov,Дмитро Кабаков,84.6,125,-130,-130,125,90,Pro Masters 45-49,M,B,Raw,125,1963
1,Viktor Stolyarov,Віктор Столяров,93.1,-135,135,147.5,147.5,100,Pro Masters 45-49,M,B,Raw,147.5,1963
1,Bogdan Shiba,Богдан Шиба,101,-115,120,-122.5,120,110,Pro Masters 45-49,M,B,Raw,120,1962
1,Yuriy Eleva,Юрій Єлева,111,110,120,-130,120,125,Pro Masters 45-49,M,B,Raw,120,1963
1,Volodimir Nagalyuk,Володимир Нагалюк,85.8,80,85,90,90,90,Pro Masters 55-59,M,B,Raw,90,1951
1,Yuriy Kislitsya,Юрій Кислиця,89,50,57.5,-65,57.5,90,Pro Masters 70-74,M,B,Raw,57.5,1938
1,Pavlo Isakov,Павел Исаков,58.1,85,90,,90,60,Pro Teen 18-19,M,B,Multi-ply,90,1991
1,Oleksandr Chorniy,Олександр Чорний,110,-195,195,207.5,207.5,110,Pro Juniors,M,B,Multi-ply,207.5,1988
1,Anton Gaydaenko,Антон Гайдаєнко,72.6,185,200,-210,200,75,Pro Open,M,B,Multi-ply,200,1986
1,Konstyantin Sapunkov,Констянтин Сапунков,82.45,185,-190,-190,185,82.5,Pro Open,M,B,Multi-ply,185,1981
2,Sergiy Sokolovskiy,Сергій Соколовський,81.95,145,152.5,-157.5,152.5,82.5,Pro Open,M,B,Multi-ply,152.5,1976
1,Volodimir Migas,Володимир Мигас,86,-225,-225,225,225,90,Pro Open,M,B,Multi-ply,225,1975
2,Efim Stepatskiy,Єфим Степацький,90,-190,190,-195,190,90,Pro Open,M,B,Multi-ply,190,1987
1,Maksim Kaydan,Максим Кайдан,97.95,210,220,225,225,100,Pro Open,M,B,Multi-ply,225,1985
2,Viktor Druzhininskiy #2,Віктор Дружининський,95.9,205,210,215,215,100,Pro Open,M,B,Multi-ply,215,1985
1,Andriy Lomnitskiy,Андрій Ломницький,109.2,220,-230,-230,220,110,Pro Open,M,B,Multi-ply,220,1980
2,Volodimir Zhelankovskiy,Володимир Желанковський,106,200,210,-215,210,110,Pro Open,M,B,Multi-ply,210,1973
3,Oleksandr Chorniy,Олександр Чорний,110,-195,195,207.5,207.5,110,Pro Open,M,B,Multi-ply,207.5,1988
1,Oleksandr Shvab,Олександр Шваб,126.9,-200,205,212.5,212.5,140,Pro Open,M,B,Multi-ply,212.5,1976
1,Arseniy Moskalenko,Арсеній Москаленко,86.65,55,65,-71,65,100,Pro Open,M,B,Multi-ply,65,1994
2,Sergiy Sokolovskiy,Сергій Соколовський,81.95,45,52.5,55,55,100,Pro Open,M,B,Multi-ply,55,1976
1,Mikhaylo Kozelchuk,Михайло Козельчук,100.35,50,60,65,65,125,Pro Open,M,B,Multi-ply,65,1988
2,Vitaliy Savelev #1,Віталій Савельєв,101.8,50,55,-60,55,125,Pro Open,M,B,Multi-ply,55,1979
1,Dmitro Lomeyko,Дмитро Ломейко,91.2,90,100,105,105,100,Pro Open,M,B,Multi-ply,105,1983
2,Vitaliy Savelev #1,Віталій Савельєв,101.8,-90,100,-102.5,100,110,Pro Open,M,B,Multi-ply,100,1979
