Equipment,Place,Name,BirthYear,Country,BodyweightKg,Best3SquatKg,Best3BenchKg,Best3DeadliftKg,TotalKg,WeightClassKg,Sex,CyrillicName,Event,Division
Single-ply,1,Yuliya Kovbasyuk,1998,Ukraine,47,85,52.5,77.5,215,47,F,Юлія Ковбасюк,SBD,Open
Single-ply,2,Olesya Dubnevich,1997,Ukraine,45.6,65,35,60,160,47,F,Олеся Дубневич,SBD,Open
Single-ply,3,Sofiya Kaday,2005,Ukraine,36.4,47.5,30,62.5,140,47,F,Софія Кадай,SBD,Open
Single-ply,1,Mariya Tsudna,1994,Ukraine,52,125,67.5,147.5,340,52,F,Марія Цудна,SBD,Open
Single-ply,2,Nataliya Savula,1998,Ukraine,52,97.5,55,120,272.5,52,F,Наталія Савула,SBD,Open
Single-ply,3,Maryana Dorka,2001,Ukraine,50.6,80,45,95,220,52,F,Маряна Дьорка,SBD,Open
Single-ply,1,Mariya Sadzhenitsya,1984,Ukraine,56.9,110,60,120,290,57,F,Марія Саджениця,SBD,Open
Single-ply,2,Nina Gerich,1999,Ukraine,56.9,95,60,112.5,267.5,57,F,Ніна Герич,SBD,Open
Single-ply,3,Alina Morgach,1997,Ukraine,57,95,52.5,115,262.5,57,F,Аліна Моргач,SBD,Open
Single-ply,4,Katerina Dobko,1999,Ukraine,56.6,97.5,50,110,257.5,57,F,Катерина Добко,SBD,Open
Single-ply,5,Liliya Timoshevska,1997,Ukraine,56.8,80,52.5,75,207.5,57,F,Лілія Тимошевська,SBD,Open
Single-ply,6,Diana Adashinska,1998,Ukraine,57,60,45,100,205,57,F,Діана Адашинська,SBD,Open
Single-ply,7,Liliya Terletska,1995,Ukraine,57,70,37.5,80,187.5,57,F,Лілія Терлецька,SBD,Open
Single-ply,1,Dariya Iskiv,1999,Ukraine,63,140,77.5,165,382.5,63,F,Дарія Іськів,SBD,Open
Single-ply,2,Olga Chop,1993,Ukraine,61.3,105,77.5,150,332.5,63,F,Ольга Чоп,SBD,Open
Single-ply,3,Marina Maksimenko,1992,Ukraine,62.9,97.5,57.5,115,270,63,F,Марина Максименко,SBD,Open
Single-ply,4,Oksana Malishenko,1997,Ukraine,62.9,85,55,107.5,247.5,63,F,Оксана Малишенко,SBD,Open
Single-ply,5,Oksana Ilchishin,1976,Ukraine,62.4,80,40,105,225,63,F,Оксана Ільчишин,SBD,Open
Single-ply,DQ,Liliya Sobko,1984,Ukraine,58.4,47.5,,,,63,F,Лілія Собко,SBD,Open
Single-ply,1,Olga Turchin,1976,Ukraine,71.9,115,67.5,120,302.5,72,F,Ольга Турчин,SBD,Open
Single-ply,2,Irina Pavlik,1987,Ukraine,63.4,85,52.5,127.5,265,72,F,Ірина Павлик,SBD,Open
Single-ply,3,Solomiya Stetsishin,2002,Ukraine,64.5,85,47.5,85,217.5,72,F,Соломія Стецишин,SBD,Open
Single-ply,1,Taras Roman,1989,Ukraine,59,135,125,190,450,59,M,Тарас Роман,SBD,Open
Single-ply,2,Sergiy-Zenoviy Lisik,1998,Ukraine,58.5,132.5,90,167.5,390,59,M,Сергій-Зеновій Лисик,SBD,Open
Single-ply,3,Viktor Smichuk,1994,Ukraine,56,100,105,170,375,59,M,Віктор Смичук,SBD,Open
Single-ply,1,Andriy Kovalishyn,1984,Ukraine,65.7,190,132.5,232.5,555,66,M,Андрій Ковалішин,SBD,Open
Single-ply,2,Mikhaylo Skop,1997,Ukraine,66,152.5,97.5,220,470,66,M,Михайло Скоп,SBD,Open
Single-ply,3,Oleg Stepas,1998,Ukraine,61.8,135,95,160,390,66,M,Олег Степась,SBD,Open
Single-ply,4,Rostislav Ponizhay,1999,Ukraine,66,120,90,152.5,362.5,66,M,Ростислав Понижай,SBD,Open
Single-ply,5,Igor Bachinskiy,1999,Ukraine,62.8,110,90,140,340,66,M,Ігор Бачинський,SBD,Open
Single-ply,1,Andriy Manastirskiy,1998,Ukraine,74,190,147.5,220,557.5,74,M,Андрій Манастирський,SBD,Open
Single-ply,2,Ostap Ripka,1997,Ukraine,74,205,110,232.5,547.5,74,M,Остап Ріпка,SBD,Open
Single-ply,3,Roman Luchkin,1985,Ukraine,73,190,130,225,545,74,M,Роман Лучкин,SBD,Open
Single-ply,4,Nazar Ilchishin,1998,Ukraine,73,165,105,207.5,477.5,74,M,Назар Ільчишин,SBD,Open
Single-ply,5,Igor Prudivus,1989,Ukraine,71.7,155,135,175,465,74,M,Ігор Прудивус,SBD,Open
Single-ply,6,Vasil Barschik,1996,Ukraine,72.6,160,120,180,460,74,M,Василь Барщик,SBD,Open
Single-ply,7,Dmitro Selnichek,2000,Ukraine,71.9,165,102.5,185,452.5,74,M,Дмитро Сельнічек,SBD,Open
Single-ply,8,Viktor Nesterenko,2000,Ukraine,74,165,112.5,175,452.5,74,M,Віктор Нестеренко,SBD,Open
Single-ply,9,Maykol Fatnassi,2000,Ukraine,74,145,100,155,400,74,M,Майкол Фатнассі,SBD,Open
Single-ply,10,Andrian Mankovskiy,2001,Ukraine,75.4,110,80,170,360,83,M,Андріан Маньковський,SBD,Open
Single-ply,DQ,Volodimir Chir,1999,Ukraine,71.6,,,,,74,M,Володимир Чир,SBD,Open
Single-ply,1,Pavlo Mysnyk,1995,Ukraine,81.6,215,172.5,290,677.5,83,M,Павло Мисник,SBD,Open
Single-ply,2,Oleksandr Chernobay,1989,Ukraine,82.6,215,160,230,605,83,M,Олександр Чернобай,SBD,Open
Single-ply,3,Maksim Shein,1994,Ukraine,83,182.5,150,245,577.5,83,M,Максим Шеін,SBD,Open
Single-ply,4,Oleksandr Senko,1993,Ukraine,83,190,160,225,575,83,M,Олександр Сенько,SBD,Open
Single-ply,5,Roman Kirilyan,1985,Ukraine,79.6,180,130,250,560,83,M,Роман Кирилян,SBD,Open
Single-ply,6,Andriy Konchak,1996,Ukraine,81.7,180,135,225,540,83,M,Андрій Кончак,SBD,Open
Single-ply,7,Viktor Kostyuk #2,1993,Ukraine,82.6,175,132.5,225,532.5,83,M,Віктор Костюк,SBD,Open
Single-ply,8,Rostislav Grinik,1990,Ukraine,80.8,167.5,140,215,522.5,83,M,Ростислав Гриник,SBD,Open
Single-ply,9,Nazar Grinyak,1977,Ukraine,83,160,175,180,515,83,M,Назар Гриняк,SBD,Open
Single-ply,10,Vitaliy Firuta,1998,Ukraine,83,172.5,120,200,492.5,83,M,Віталій Фірута,SBD,Open
Single-ply,11,Andriy Garasim,1989,Ukraine,81.9,145,145,200,490,83,M,Андрій Гарасим,SBD,Open
Single-ply,12,Ernest Albert,1998,Ukraine,82,142.5,120,180,442.5,83,M,Ернест Альберт,SBD,Open
Single-ply,13,Nazar Pushkar,1999,Ukraine,81.5,150,107.5,175,432.5,83,M,Назар Пушкар,SBD,Open
Single-ply,14,Nazariy Shemelyak,2000,Ukraine,83,147.5,105,165,417.5,83,M,Назарій Шемеляк,SBD,Open
Single-ply,15,Lyubomir Nikolaenko,1993,Ukraine,76.8,132.5,90,150,372.5,83,M,Любомир Ніколаєнко,SBD,Open
Single-ply,1,Roman Martynenko,1990,Ukraine,89.8,250,210,270,730,93,M,Роман Мартиненко,SBD,Open
Single-ply,2,Volodimir Zamikhivskiy,1979,Ukraine,91.5,250,162.5,280,692.5,93,M,Володимир Замихівський,SBD,Open
Single-ply,3,Roman Zadorozhniy,1984,Ukraine,91.9,250,165,252.5,667.5,93,M,Роман Задорожний,SBD,Open
Single-ply,4,Sergiy Sakhno,1984,Ukraine,91,220,162.5,260,642.5,93,M,Сергій Сахно,SBD,Open
Single-ply,5,Ivan Seletskiy,1994,Ukraine,93,225,165,240,630,93,M,Іван Селецький,SBD,Open
Single-ply,6,Pavlo Medvid,1995,Ukraine,93,225,165,237.5,627.5,93,M,Павло Медвідь,SBD,Open
Single-ply,7,Ruslan Lelik,1997,Ukraine,87.3,210,152.5,255,617.5,93,M,Руслан Лелик,SBD,Open
Single-ply,8,Oleksandr Pivnyuk,1990,Ukraine,90.6,210,157.5,240,607.5,93,M,Олександр Півнюк,SBD,Open
Single-ply,9,Zakhar Priyma,1999,Ukraine,90.1,190,160,232.5,582.5,93,M,Захар Прийма,SBD,Open
Single-ply,10,Maksim Fetsich,1997,Ukraine,91.4,205,155,210,570,93,M,Максим Фецич,SBD,Open
Single-ply,11,Yuriy Slesarenko,1981,Ukraine,93,202.5,155,210,567.5,93,M,Юрій Слесаренко,SBD,Open
Single-ply,12,Mikola Pashkovskiy,1996,Ukraine,90.9,195,132.5,200,527.5,93,M,Микола Пашковський,SBD,Open
Single-ply,13,Volodimir Petriv,1995,Ukraine,91.3,205,130,190,525,93,M,Володимир Петрів,SBD,Open
Single-ply,14,Nazar Gaydamashko,1993,Ukraine,91.3,160,130,180,470,93,M,Назар Гайдамашко,SBD,Open
Single-ply,1,Roman Gavriliv,1980,Ukraine,105,235,187.5,252.5,675,105,M,Роман Гаврилів,SBD,Open
Single-ply,2,Andriy Kachmar,1993,Ukraine,105,230,182.5,250,662.5,105,M,Андрій Качмар,SBD,Open
Single-ply,3,Oleksandr Gangur,1999,Ukraine,93.9,250,132.5,275,657.5,105,M,Олександр Гангур,SBD,Open
Single-ply,4,Viktor Logvin,1998,Ukraine,98.6,240,152.5,250,642.5,105,M,Віктор Логвін,SBD,Open
Single-ply,5,Miroslav Krivoruchka,1996,Ukraine,103.7,210,165,240,615,105,M,Мирослав Криворучка,SBD,Open
Single-ply,6,Volodimir Kiper,1970,Ukraine,101.5,210,140,230,580,105,M,Володимир Кипер,SBD,Open
Single-ply,1,Oleksiy Tynkalyuk,1980,Ukraine,117.4,235,165,240,640,120,M,Олексій Тинкалюк,SBD,Open
Single-ply,2,Yuriy Bliznak,1996,Ukraine,110.2,210,165,237.5,612.5,120,M,Юрій Близнак,SBD,Open
Single-ply,3,Svyatoslav Zdankevich,1998,Ukraine,113.4,215,145,230,590,120,M,Святослав Зданкевич,SBD,Open
Single-ply,1,Andriy Detko,1999,Ukraine,140,212.5,122.5,230,565,120+,M,Андрій Детко,SBD,Open
