Place,Name,CyrillicName,Country,BirthDate,BodyweightKg,Bench1Kg,Bench2Kg,Bench3Kg,Bench4Kg,Deadlift1Kg,Deadlift2Kg,Deadlift3Kg,Deadlift4Kg,TotalKg,WeightClassKg,Division,Sex,Event,Equipment,Tested,Best3BenchKg,Best3DeadliftKg,BirthYear
1,Bogdan Kalinovskiy,Богдан Калиновський,Ukraine,1997-02-10,89.5,140,147.5,-155,,-225,225,240,,387.5,90,Amateur Juniors 20-23,M,BD,Raw,Yes,147.5,240,1997
1,Vasil Semkiv,Василь Семків,Ukraine,1991-06-30,80.85,122.5,127.5,132.5,,170,185,202.5,,335,82.5,Amateur Open,M,BD,Raw,Yes,132.5,202.5,1991
1,Stepan Savchuk,Степан Савчук,Ukraine,1996-04-18,84.5,140,155,160,,240,260,-267.5,,420,90,Amateur Open,M,BD,Raw,Yes,160,260,1996
1,Yaroslav Oleksin,Ярослав Олексин,Ukraine,1986-09-11,95.8,115,120,-122.5,,165,180,190,,310,100,Amateur Open,M,BD,Raw,Yes,120,190,1986
1,Valentin Slutskiy,Валентин Слуцький,Ukraine,1973-11-17,102.6,150,-155,,,180,195,202.5,,352.5,110,Amateur Masters 45-49,M,BD,Raw,Yes,150,202.5,1973
1,Svitlana Oleksin,Світлана Олексин,Ukraine,1986-04-29,60,35,40,-45,,80,90,-105,,130,60,Amateur Open,F,BD,Raw,Yes,40,90,1986
1,Oleksandr Desyatskiy,Олександр Десяцький,Ukraine,1976-11-24,125,190,200,210,,280,-290,-300,,490,125,Pro Masters 40-44,M,BD,Raw,No,210,280,1976
1,Volodimir Galiga,Володимир Галига,Ukraine,2005-08-16,46.9,37.5,40,42.5,,,,,,42.5,48,Amateur Teen 13-15,M,B,Raw,Yes,42.5,,2005
1,Dmitro Melnik,Дмитро Мельник,Ukraine,2003-09-22,67,100,-105,105,,,,,,105,67.5,Amateur Teen 13-15,M,B,Raw,Yes,105,,2003
1,Mikhaylo Sapronov,Михайло Сапронов,Ukraine,2003-11-21,90,60,80,-87.5,,,,,,80,90,Amateur Teen 13-15,M,B,Raw,Yes,80,,2003
1,Andriy Kobilyanskiy,Андрій Кобилянський,Ukraine,2002-02-18,82.4,82.5,90,95,,,,,,95,82.5,Amateur Teen 16-17,M,B,Raw,Yes,95,,2002
1,Illia Bobylev,,Belarus,2000-05-17,66.85,115,120,-125,,,,,,120,67.5,Amateur Teen 18-19,M,B,Raw,Yes,120,,2000
1,Maksim Yarmolyuk,Максим Ярмолюк,Ukraine,1997-02-04,60,120,-130,130,,,,,,130,60,Amateur Juniors 20-23,M,B,Raw,Yes,130,,1997
1,Vasil Kovalchuk,Василь Ковальчук,Ukraine,1999-01-28,74.95,130,140,150,,,,,,150,75,Amateur Juniors 20-23,M,B,Raw,Yes,150,,1999
1,Igor Tomkiv,Ігор Томків,Ukraine,1996-10-03,80.05,-87.5,87.5,102.5,,,,,,102.5,82.5,Amateur Juniors 20-23,M,B,Raw,Yes,102.5,,1996
1,Yuriy Tsibulskiy,Юрій Цибульський,Ukraine,1995-06-19,88.1,135,140,145,,,,,,145,90,Amateur Juniors 20-23,M,B,Raw,Yes,145,,1995
1,Pavlo Kozak,Павло Козак,Ukraine,1983-07-10,53.6,110,115,120,,,,,,120,56,Amateur Open,M,B,Raw,Yes,120,,1983
1,Maksim Yarmolyuk,Максим Ярмолюк,Ukraine,1997-02-04,60,120,-130,130,,,,,,130,60,Amateur Open,M,B,Raw,Yes,130,,1997
2,Valeriy Popovich,Валерій Попович,Ukraine,1994-07-27,60,80,90,,,,,,,90,60,Amateur Open,M,B,Raw,Yes,90,,1994
1,Igor Trofimchuk,Ігор Трофимчук,Ukraine,1978-03-18,66.9,120,125,127.5,,,,,,127.5,67.5,Amateur Open,M,B,Raw,Yes,127.5,,1978
2,Bogdan Koshulab,Богдан Кошулаб,Ukraine,1992-02-10,62.7,100,105,110,,,,,,110,67.5,Amateur Open,M,B,Raw,Yes,110,,1992
1,Ivan Pelinkevich,Іван Пелінкевич,Ukraine,1990-10-09,73.35,110,125,130,,,,,,130,75,Amateur Open,M,B,Raw,Yes,130,,1990
2,Roman Gumenyuk,Роман Гуменюк,Ukraine,1992-08-09,68.75,100,110,-115,,,,,,110,75,Amateur Open,M,B,Raw,Yes,110,,1992
3,Nestor Vasilyuk,Нестор Василюк,Ukraine,1993-07-16,72.2,110,-125,-125,,,,,,110,75,Amateur Open,M,B,Raw,Yes,110,,1993
1,Vasil Semkiv,Василь Семків,Ukraine,1991-06-30,80.85,122.5,127.5,132.5,,,,,,132.5,82.5,Amateur Open,M,B,Raw,Yes,132.5,,1991
2,Valeriy Onishchuk,Валерій Оніщук,Ukraine,1981-10-02,81,90,100,-120,,,,,,100,82.5,Amateur Open,M,B,Raw,Yes,100,,1981
1,Yuriy Tsibulskiy,Юрій Цибульський,Ukraine,1995-06-19,88.1,135,140,145,,,,,,145,90,Amateur Open,M,B,Raw,Yes,145,,1995
2,Yuriy Filonenko,Юрій Філоненко,Ukraine,1954-03-10,87.5,-112.5,112.5,-115,,,,,,112.5,90,Amateur Open,M,B,Raw,Yes,112.5,,1954
1,Yuriy Polishchuk #1,Юрій Поліщук,Ukraine,1992-08-13,95.5,130,140,-147.5,,,,,,140,100,Amateur Open,M,B,Raw,Yes,140,,1992
2,Bogdan Golonko,Богдан Гольонко,Ukraine,1994-01-26,95.7,130,137.5,-147.5,,,,,,137.5,100,Amateur Open,M,B,Raw,Yes,137.5,,1994
3,Yaroslav Oleksin,Ярослав Олексин,Ukraine,1986-09-11,95.8,115,120,-122.5,,,,,,120,100,Amateur Open,M,B,Raw,Yes,120,,1986
1,Andriy Danilyuk,Андрій Данилюк,Ukraine,1982-06-01,105.4,130,140,-150,,,,,,140,110,Amateur Open,M,B,Raw,Yes,140,,1982
1,Valeriy Onishchuk,Валерій Оніщук,Ukraine,1981-10-02,81,90,100,-120,,,,,,100,82.5,Amateur Submasters 33-39,M,B,Raw,Yes,100,,1981
1,Andriy Danilyuk,Андрій Данилюк,Ukraine,1982-06-01,105.4,130,140,-150,,,,,,140,110,Amateur Submasters 33-39,M,B,Raw,Yes,140,,1982
1,Valentin Chervonyashchiy,Валентин Червонящий,Ukraine,1970-11-11,80.35,115,132.5,-137.5,,,,,,132.5,82.5,Amateur Masters 45-49,M,B,Raw,Yes,132.5,,1970
1,Valentin Slutskiy,Валентин Слуцький,Ukraine,1973-11-17,102.6,150,-155,,,,,,,150,110,Amateur Masters 45-49,M,B,Raw,Yes,150,,1973
1,Petro Pristupa,Петро Приступа,Ukraine,1963-02-04,74.15,100,-105,,,,,,,100,75,Amateur Masters 55-59,M,B,Raw,Yes,100,,1963
1,Yuriy Filonenko,Юрій Філоненко,Ukraine,1954-03-10,87.5,-112.5,112.5,-115,,,,,,112.5,90,Amateur Masters 60-64,M,B,Raw,Yes,112.5,,1954
1,Valeriy Popovich,Валерій Попович,Ukraine,1994-07-27,60,80,90,,,,,,,90,60,Amateur Military/Fire/Police,M,B,Raw,Yes,90,,1994
1,Pavlo Kozak,Павло Козак,Ukraine,1983-07-10,53.6,110,115,120,,,,,,120,56,Amateur Paralympian,M,B,Raw,Yes,120,,1983
1,Bogdan Koshulab,Богдан Кошулаб,Ukraine,1992-02-10,62.7,100,105,110,,,,,,110,67.5,Amateur Paralympian,M,B,Raw,Yes,110,,1992
1,Roman Gumenyuk,Роман Гуменюк,Ukraine,1992-08-09,68.75,100,110,-115,,,,,,110,75,Amateur Paralympian,M,B,Raw,Yes,110,,1992
1,Yana Gayda,Яна Гайда,Ukraine,1999-08-12,55.45,42.5,-47.5,52.5,,,,,,52.5,56,Amateur Teen 18-19,F,B,Raw,Yes,52.5,,1999
1,Nataliya Melnichuk,Наталія Мельничук,Ukraine,1975-06-13,53,67.5,70,-72.5,,,,,,70,56,Amateur Open,F,B,Raw,Yes,70,,1975
2,Alina Klodchik,Аліна Клодчик,Ukraine,1994-04-21,54.05,42.5,47.5,-52.5,,,,,,47.5,56,Amateur Open,F,B,Raw,Yes,47.5,,1994
1,Svitlana Oleksin,Світлана Олексин,Ukraine,1986-04-29,60,35,40,-45,,,,,,40,60,Amateur Open,F,B,Raw,Yes,40,,1986
1,Nataliya Melnichuk,Наталія Мельничук,Ukraine,1975-06-13,53,67.5,70,-72.5,,,,,,70,56,Amateur Masters 40-44,F,B,Raw,Yes,70,,1975
1,Sergiy Melnik,Сергій Мельник,Ukraine,1982-02-10,74.9,150,-157.5,160,,,,,,160,75,Pro Open,M,B,Raw,No,160,,1982
1,Viktor Blakitniy,Віктор Блакитний,Ukraine,1981-04-26,81.4,150,160,,,,,,,160,82.5,Pro Open,M,B,Raw,No,160,,1981
1,Sergiy Yaremchuk,Сергій Яремчук,Ukraine,1989-06-03,108,200,-210,-217.5,,,,,,200,110,Pro Open,M,B,Raw,No,200,,1989
2,Oleksandr Kisilchuk,Олександр Кисільчук,Ukraine,1993-08-17,101.2,-125,125,130,,,,,,130,110,Pro Open,M,B,Raw,No,130,,1993
1,Viktor Blakitniy,Віктор Блакитний,Ukraine,1981-04-26,81.4,150,160,,,,,,,160,82.5,Pro Submasters 33-39,M,B,Raw,No,160,,1981
1,Igor Melnik,Ігор Мельник,Ukraine,1982-10-17,97.6,160,165,167.5,,,,,,167.5,100,Pro Submasters 33-39,M,B,Raw,No,167.5,,1982
1,Oleksandr Desyatskiy,Олександр Десяцький,Ukraine,1976-11-24,125,190,200,210,,,,,,210,125,Pro Masters 40-44,M,B,Raw,No,210,,1976
1,Oleksandr Gensitskyy,Олександр Генсіцький,Ukraine,1975-12-18,139.95,210,220,-240,,,,,,220,140,Pro Masters 40-44,M,B,Raw,No,220,,1975
2,Viktor Kulik,,Belarus,1974-11-19,129.3,190,200,207.5,,,,,,207.5,140,Pro Masters 40-44,M,B,Raw,No,207.5,,1974
1,Sergiy Avramenko,Сергій Авраменко,Ukraine,1971-08-16,116.05,117.5,120,122.5,,,,,,122.5,125,Pro Masters 45-49,M,B,Raw,No,122.5,,1971
1,Sergiy Avramenko,Сергій Авраменко,Ukraine,1971-08-16,116.05,117.5,120,122.5,,,,,,122.5,125,Pro Military/Fire/Police,M,B,Raw,No,122.5,,1971
1,Sergiy Dem'yanov,Сергій Дем'янов,Ukraine,1986-10-25,90,-220,225,-232.5,,,,,,225,90,Pro Open,M,B,Multi-ply,No,225,,1986
1,Mikhaylo Sapronov,Михайло Сапронов,Ukraine,2003-11-21,90,,,,,120,140,-150,,140,90,Amateur Teen 13-15,M,D,Raw,Yes,,140,2003
1,Nazar Vegera,Назар Вегера,Ukraine,2000-09-22,65.1,,,,,140,150,155,,155,67.5,Amateur Teen 18-19,M,D,Raw,Yes,,155,2000
1,Dmitro Valchevskiy,Дмитро Вальчевський,Ukraine,1998-11-09,73.1,,,,,200,210,-222.5,,210,75,Amateur Juniors 20-23,M,D,Raw,Yes,,210,1998
1,Nazar Klets,Назар Клец,Ukraine,1998-09-19,89.4,,,,,-160,160,175,,175,90,Amateur Juniors 20-23,M,D,Raw,Yes,,175,1998
1,Oleg Malakhivskiy,Олег Малахівський,Ukraine,1998-08-28,95.8,,,,,200,210,222.5,,222.5,100,Amateur Juniors 20-23,M,D,Raw,Yes,,222.5,1998
1,Valeriy Popovich,Валерій Попович,Ukraine,1994-07-27,60,,,,,150,160,170,,170,60,Amateur Open,M,D,Raw,Yes,,170,1994
1,Dmitro Valchevskiy,Дмитро Вальчевський,Ukraine,1998-11-09,73.1,,,,,200,210,-222.5,,210,75,Amateur Open,M,D,Raw,Yes,,210,1998
1,Vasil Semkiv,Василь Семків,Ukraine,1991-06-30,80.85,,,,,170,185,202.5,,202.5,82.5,Amateur Open,M,D,Raw,Yes,,202.5,1991
1,Stepan Savchuk,Степан Савчук,Ukraine,1996-04-18,84.5,,,,,240,260,-267.5,,260,90,Amateur Open,M,D,Raw,Yes,,260,1996
1,Yaroslav Oleksin,Ярослав Олексин,Ukraine,1986-09-11,95.8,,,,,165,180,190,,190,100,Amateur Open,M,D,Raw,Yes,,190,1986
1,Yarosvit Piddubniy,Яросвіт Піддубний,Ukraine,1985-05-26,76.65,,,,,160,170,177.5,,177.5,82.5,Amateur Submasters 33-39,M,D,Raw,Yes,,177.5,1985
1,Igor Golovko,Ігор Головко,Ukraine,1983-02-16,122.25,,,,,225,245,250,,250,125,Amateur Submasters 33-39,M,D,Raw,Yes,,250,1983
1,Valentin Slutskiy,Валентин Слуцький,Ukraine,1973-11-17,102.6,,,,,180,195,202.5,,202.5,110,Amateur Masters 45-49,M,D,Raw,Yes,,202.5,1973
1,Valeriy Popovich,Валерій Попович,Ukraine,1994-07-27,60,,,,,150,160,170,,170,60,Amateur Military/Fire/Police,M,D,Raw,Yes,,170,1994
1,Igor Golovko,Ігор Головко,Ukraine,1983-02-16,122.25,,,,,225,245,250,,250,125,Amateur Military/Fire/Police,M,D,Raw,Yes,,250,1983
1,Yuliya Tsimbalyuk,Юлія Цимбалюк,Ukraine,1986-08-12,52,,,,,105,112.5,117.5,,117.5,52,Amateur Open,F,D,Raw,Yes,,117.5,1986
1,Olga Yarmolyuk,Ольга Ярмолюк,Ukraine,1989-03-04,54.8,,,,,157.5,167.5,172.5,,172.5,56,Amateur Open,F,D,Raw,Yes,,172.5,1989
2,Svitlana Sinyuta,Світлана Синюта,Ukraine,1987-06-14,55.1,,,,,137.5,142.5,145,,145,56,Amateur Open,F,D,Raw,Yes,,145,1987
3,Armine Sargsyan,Арміне Саргсян,Ukraine,1981-02-20,56,,,,,125,135,142.5,,142.5,56,Amateur Open,F,D,Raw,Yes,,142.5,1981
1,Svitlana Oleksin,Світлана Олексин,Ukraine,1986-04-29,60,,,,,80,90,-105,,90,60,Amateur Open,F,D,Raw,Yes,,90,1986
1,Yuliya Dubetska,Юлія Дубецька,Ukraine,1986-06-27,64.2,,,,,115,125,132.5,,132.5,67.5,Amateur Open,F,D,Raw,Yes,,132.5,1986
1,Katerina Moysik,Катерина Мойсік,Ukraine,1984-01-18,50.5,,,,,90,95,100,,100,52,Amateur Submasters 33-39,F,D,Raw,Yes,,100,1984
1,Mikola Stepasyuk,Микола Степасюк,Ukraine,1993-05-10,79.8,,,,,-220,235,245,,245,82.5,Pro Open,M,D,Raw,No,,245,1993
1,Evgenij Shavchenko,,Belarus,1993-11-08,123.5,,,,,325,350,-362.5,,350,125,Pro Open,M,D,Raw,No,,350,1993
1,Aleksandr Bulavko,,Belarus,1976-05-30,99.15,,,,,252.5,265,-272.5,,265,100,Pro Masters 40-44,M,D,Raw,No,,265,1976
1,Oleksandr Desyatskiy,Олександр Десяцький,Ukraine,1976-11-24,125,,,,,280,-290,-300,,280,125,Pro Masters 40-44,M,D,Raw,No,,280,1976
